\contentsline {chapter}{\numberline {1}Star\discretionary {\unhbox \voidb@x \hbox {\relax \fontsize {7}{8}\selectfont $\leftarrow \joinrel \rhook $}}{}{}Map}{1}{chapter.1}
\contentsline {chapter}{\numberline {2}Namespace Index}{3}{chapter.2}
\contentsline {section}{\numberline {2.1}Namespace List}{3}{section.2.1}
\contentsline {chapter}{\numberline {3}Hierarchical Index}{5}{chapter.3}
\contentsline {section}{\numberline {3.1}Class Hierarchy}{5}{section.3.1}
\contentsline {chapter}{\numberline {4}Class Index}{7}{chapter.4}
\contentsline {section}{\numberline {4.1}Class List}{7}{section.4.1}
\contentsline {chapter}{\numberline {5}File Index}{9}{chapter.5}
\contentsline {section}{\numberline {5.1}File List}{9}{section.5.1}
\contentsline {chapter}{\numberline {6}Namespace Documentation}{11}{chapter.6}
\contentsline {section}{\numberline {6.1}Space\discretionary {\unhbox \voidb@x \hbox {\relax \fontsize {7}{8}\selectfont $\leftarrow \joinrel \rhook $}}{}{}Map\discretionary {\unhbox \voidb@x \hbox {\relax \fontsize {7}{8}\selectfont $\leftarrow \joinrel \rhook $}}{}{}Editor Namespace Reference}{11}{section.6.1}
\contentsline {section}{\numberline {6.2}Space\discretionary {\unhbox \voidb@x \hbox {\relax \fontsize {7}{8}\selectfont $\leftarrow \joinrel \rhook $}}{}{}Map\discretionary {\unhbox \voidb@x \hbox {\relax \fontsize {7}{8}\selectfont $\leftarrow \joinrel \rhook $}}{}{}Editor\discretionary {\unhbox \voidb@x \hbox {\relax \fontsize {7}{8}\selectfont $\leftarrow \joinrel \rhook $}}{}{}:\discretionary {\unhbox \voidb@x \hbox {\relax \fontsize {7}{8}\selectfont $\leftarrow \joinrel \rhook $}}{}{}:Structures Namespace Reference}{11}{section.6.2}
\contentsline {section}{\numberline {6.3}std Namespace Reference}{11}{section.6.3}
\contentsline {chapter}{\numberline {7}Class Documentation}{13}{chapter.7}
\contentsline {section}{\numberline {7.1}Dijkstra\discretionary {\unhbox \voidb@x \hbox {\relax \fontsize {7}{8}\selectfont $\leftarrow \joinrel \rhook $}}{}{}From\discretionary {\unhbox \voidb@x \hbox {\relax \fontsize {7}{8}\selectfont $\leftarrow \joinrel \rhook $}}{}{}Node Class Reference}{13}{section.7.1}
\contentsline {subsection}{\numberline {7.1.1}Detailed Description}{13}{subsection.7.1.1}
\contentsline {subsection}{\numberline {7.1.2}Constructor \& Destructor Documentation}{13}{subsection.7.1.2}
\contentsline {subsubsection}{\numberline {7.1.2.1}Dijkstra\discretionary {\unhbox \voidb@x \hbox {\relax \fontsize {7}{8}\selectfont $\leftarrow \joinrel \rhook $}}{}{}From\discretionary {\unhbox \voidb@x \hbox {\relax \fontsize {7}{8}\selectfont $\leftarrow \joinrel \rhook $}}{}{}Node}{13}{subsubsection.7.1.2.1}
\contentsline {subsection}{\numberline {7.1.3}Member Function Documentation}{13}{subsection.7.1.3}
\contentsline {subsubsection}{\numberline {7.1.3.1}operator()}{13}{subsubsection.7.1.3.1}
\contentsline {section}{\numberline {7.2}Dijkstra\discretionary {\unhbox \voidb@x \hbox {\relax \fontsize {7}{8}\selectfont $\leftarrow \joinrel \rhook $}}{}{}To\discretionary {\unhbox \voidb@x \hbox {\relax \fontsize {7}{8}\selectfont $\leftarrow \joinrel \rhook $}}{}{}Node Class Reference}{14}{section.7.2}
\contentsline {subsection}{\numberline {7.2.1}Detailed Description}{14}{subsection.7.2.1}
\contentsline {subsection}{\numberline {7.2.2}Constructor \& Destructor Documentation}{14}{subsection.7.2.2}
\contentsline {subsubsection}{\numberline {7.2.2.1}Dijkstra\discretionary {\unhbox \voidb@x \hbox {\relax \fontsize {7}{8}\selectfont $\leftarrow \joinrel \rhook $}}{}{}To\discretionary {\unhbox \voidb@x \hbox {\relax \fontsize {7}{8}\selectfont $\leftarrow \joinrel \rhook $}}{}{}Node}{14}{subsubsection.7.2.2.1}
\contentsline {subsection}{\numberline {7.2.3}Member Function Documentation}{14}{subsection.7.2.3}
\contentsline {subsubsection}{\numberline {7.2.3.1}operator()}{14}{subsubsection.7.2.3.1}
\contentsline {section}{\numberline {7.3}Edge Class Reference}{15}{section.7.3}
\contentsline {subsection}{\numberline {7.3.1}Detailed Description}{15}{subsection.7.3.1}
\contentsline {subsection}{\numberline {7.3.2}Member Enumeration Documentation}{16}{subsection.7.3.2}
\contentsline {subsubsection}{\numberline {7.3.2.1}anonymous enum}{16}{subsubsection.7.3.2.1}
\contentsline {subsubsection}{\numberline {7.3.2.2}Arrow\discretionary {\unhbox \voidb@x \hbox {\relax \fontsize {7}{8}\selectfont $\leftarrow \joinrel \rhook $}}{}{}Type}{16}{subsubsection.7.3.2.2}
\contentsline {subsection}{\numberline {7.3.3}Constructor \& Destructor Documentation}{16}{subsection.7.3.3}
\contentsline {subsubsection}{\numberline {7.3.3.1}Edge}{16}{subsubsection.7.3.3.1}
\contentsline {subsection}{\numberline {7.3.4}Member Function Documentation}{16}{subsection.7.3.4}
\contentsline {subsubsection}{\numberline {7.3.4.1}adjust}{16}{subsubsection.7.3.4.1}
\contentsline {subsubsection}{\numberline {7.3.4.2}arrow\discretionary {\unhbox \voidb@x \hbox {\relax \fontsize {7}{8}\selectfont $\leftarrow \joinrel \rhook $}}{}{}Type}{16}{subsubsection.7.3.4.2}
\contentsline {subsubsection}{\numberline {7.3.4.3}bounding\discretionary {\unhbox \voidb@x \hbox {\relax \fontsize {7}{8}\selectfont $\leftarrow \joinrel \rhook $}}{}{}Rect}{17}{subsubsection.7.3.4.3}
\contentsline {subsubsection}{\numberline {7.3.4.4}color}{17}{subsubsection.7.3.4.4}
\contentsline {subsubsection}{\numberline {7.3.4.5}cost}{17}{subsubsection.7.3.4.5}
\contentsline {subsubsection}{\numberline {7.3.4.6}from}{17}{subsubsection.7.3.4.6}
\contentsline {subsubsection}{\numberline {7.3.4.7}paint}{17}{subsubsection.7.3.4.7}
\contentsline {subsubsection}{\numberline {7.3.4.8}set\discretionary {\unhbox \voidb@x \hbox {\relax \fontsize {7}{8}\selectfont $\leftarrow \joinrel \rhook $}}{}{}Arrow\discretionary {\unhbox \voidb@x \hbox {\relax \fontsize {7}{8}\selectfont $\leftarrow \joinrel \rhook $}}{}{}Type}{18}{subsubsection.7.3.4.8}
\contentsline {subsubsection}{\numberline {7.3.4.9}set\discretionary {\unhbox \voidb@x \hbox {\relax \fontsize {7}{8}\selectfont $\leftarrow \joinrel \rhook $}}{}{}Color}{18}{subsubsection.7.3.4.9}
\contentsline {subsubsection}{\numberline {7.3.4.10}set\discretionary {\unhbox \voidb@x \hbox {\relax \fontsize {7}{8}\selectfont $\leftarrow \joinrel \rhook $}}{}{}Cost}{18}{subsubsection.7.3.4.10}
\contentsline {subsubsection}{\numberline {7.3.4.11}set\discretionary {\unhbox \voidb@x \hbox {\relax \fontsize {7}{8}\selectfont $\leftarrow \joinrel \rhook $}}{}{}Valid}{18}{subsubsection.7.3.4.11}
\contentsline {subsubsection}{\numberline {7.3.4.12}shape}{18}{subsubsection.7.3.4.12}
\contentsline {subsubsection}{\numberline {7.3.4.13}to}{19}{subsubsection.7.3.4.13}
\contentsline {subsubsection}{\numberline {7.3.4.14}type}{19}{subsubsection.7.3.4.14}
\contentsline {subsubsection}{\numberline {7.3.4.15}valid}{19}{subsubsection.7.3.4.15}
\contentsline {subsection}{\numberline {7.3.5}Friends And Related Function Documentation}{19}{subsection.7.3.5}
\contentsline {subsubsection}{\numberline {7.3.5.1}operator$<$$<$}{19}{subsubsection.7.3.5.1}
\contentsline {section}{\numberline {7.4}Space\discretionary {\unhbox \voidb@x \hbox {\relax \fontsize {7}{8}\selectfont $\leftarrow \joinrel \rhook $}}{}{}Map\discretionary {\unhbox \voidb@x \hbox {\relax \fontsize {7}{8}\selectfont $\leftarrow \joinrel \rhook $}}{}{}Editor\discretionary {\unhbox \voidb@x \hbox {\relax \fontsize {7}{8}\selectfont $\leftarrow \joinrel \rhook $}}{}{}:\discretionary {\unhbox \voidb@x \hbox {\relax \fontsize {7}{8}\selectfont $\leftarrow \joinrel \rhook $}}{}{}:Structures\discretionary {\unhbox \voidb@x \hbox {\relax \fontsize {7}{8}\selectfont $\leftarrow \joinrel \rhook $}}{}{}:\discretionary {\unhbox \voidb@x \hbox {\relax \fontsize {7}{8}\selectfont $\leftarrow \joinrel \rhook $}}{}{}:Graph$<$ N, E, Comparer $>$ Class Template Reference}{19}{section.7.4}
\contentsline {subsection}{\numberline {7.4.1}Detailed Description}{20}{subsection.7.4.1}
\contentsline {subsection}{\numberline {7.4.2}Member Typedef Documentation}{20}{subsection.7.4.2}
\contentsline {subsubsection}{\numberline {7.4.2.1}Edges\discretionary {\unhbox \voidb@x \hbox {\relax \fontsize {7}{8}\selectfont $\leftarrow \joinrel \rhook $}}{}{}List}{20}{subsubsection.7.4.2.1}
\contentsline {subsubsection}{\numberline {7.4.2.2}Neighbors\discretionary {\unhbox \voidb@x \hbox {\relax \fontsize {7}{8}\selectfont $\leftarrow \joinrel \rhook $}}{}{}List}{21}{subsubsection.7.4.2.2}
\contentsline {subsubsection}{\numberline {7.4.2.3}Nodes\discretionary {\unhbox \voidb@x \hbox {\relax \fontsize {7}{8}\selectfont $\leftarrow \joinrel \rhook $}}{}{}List}{21}{subsubsection.7.4.2.3}
\contentsline {subsection}{\numberline {7.4.3}Constructor \& Destructor Documentation}{21}{subsection.7.4.3}
\contentsline {subsubsection}{\numberline {7.4.3.1}Graph}{21}{subsubsection.7.4.3.1}
\contentsline {subsubsection}{\numberline {7.4.3.2}$\sim $\discretionary {\unhbox \voidb@x \hbox {\relax \fontsize {7}{8}\selectfont $\leftarrow \joinrel \rhook $}}{}{}Graph}{21}{subsubsection.7.4.3.2}
\contentsline {subsection}{\numberline {7.4.4}Member Function Documentation}{21}{subsection.7.4.4}
\contentsline {subsubsection}{\numberline {7.4.4.1}add\discretionary {\unhbox \voidb@x \hbox {\relax \fontsize {7}{8}\selectfont $\leftarrow \joinrel \rhook $}}{}{}Edge}{21}{subsubsection.7.4.4.1}
\contentsline {subsubsection}{\numberline {7.4.4.2}add\discretionary {\unhbox \voidb@x \hbox {\relax \fontsize {7}{8}\selectfont $\leftarrow \joinrel \rhook $}}{}{}Node}{21}{subsubsection.7.4.4.2}
\contentsline {subsubsection}{\numberline {7.4.4.3}clear}{22}{subsubsection.7.4.4.3}
\contentsline {subsubsection}{\numberline {7.4.4.4}delete\discretionary {\unhbox \voidb@x \hbox {\relax \fontsize {7}{8}\selectfont $\leftarrow \joinrel \rhook $}}{}{}Edge}{22}{subsubsection.7.4.4.4}
\contentsline {subsubsection}{\numberline {7.4.4.5}edges}{22}{subsubsection.7.4.4.5}
\contentsline {subsubsection}{\numberline {7.4.4.6}edges}{22}{subsubsection.7.4.4.6}
\contentsline {subsubsection}{\numberline {7.4.4.7}empty}{22}{subsubsection.7.4.4.7}
\contentsline {subsubsection}{\numberline {7.4.4.8}find\discretionary {\unhbox \voidb@x \hbox {\relax \fontsize {7}{8}\selectfont $\leftarrow \joinrel \rhook $}}{}{}Edge}{23}{subsubsection.7.4.4.8}
\contentsline {subsubsection}{\numberline {7.4.4.9}find\discretionary {\unhbox \voidb@x \hbox {\relax \fontsize {7}{8}\selectfont $\leftarrow \joinrel \rhook $}}{}{}Edge}{24}{subsubsection.7.4.4.9}
\contentsline {subsubsection}{\numberline {7.4.4.10}find\discretionary {\unhbox \voidb@x \hbox {\relax \fontsize {7}{8}\selectfont $\leftarrow \joinrel \rhook $}}{}{}Node}{24}{subsubsection.7.4.4.10}
\contentsline {subsubsection}{\numberline {7.4.4.11}neighbors}{24}{subsubsection.7.4.4.11}
\contentsline {subsubsection}{\numberline {7.4.4.12}neighbors}{25}{subsubsection.7.4.4.12}
\contentsline {subsubsection}{\numberline {7.4.4.13}nodes}{25}{subsubsection.7.4.4.13}
\contentsline {subsubsection}{\numberline {7.4.4.14}nodes}{25}{subsubsection.7.4.4.14}
\contentsline {subsubsection}{\numberline {7.4.4.15}size}{25}{subsubsection.7.4.4.15}
\contentsline {subsubsection}{\numberline {7.4.4.16}size\discretionary {\unhbox \voidb@x \hbox {\relax \fontsize {7}{8}\selectfont $\leftarrow \joinrel \rhook $}}{}{}Edges}{26}{subsubsection.7.4.4.16}
\contentsline {section}{\numberline {7.5}std\discretionary {\unhbox \voidb@x \hbox {\relax \fontsize {7}{8}\selectfont $\leftarrow \joinrel \rhook $}}{}{}:\discretionary {\unhbox \voidb@x \hbox {\relax \fontsize {7}{8}\selectfont $\leftarrow \joinrel \rhook $}}{}{}:less$<$ Node $\ast $ $>$ Struct Template Reference}{26}{section.7.5}
\contentsline {subsection}{\numberline {7.5.1}Detailed Description}{26}{subsection.7.5.1}
\contentsline {subsection}{\numberline {7.5.2}Member Function Documentation}{26}{subsection.7.5.2}
\contentsline {subsubsection}{\numberline {7.5.2.1}operator()}{26}{subsubsection.7.5.2.1}
\contentsline {section}{\numberline {7.6}Map\discretionary {\unhbox \voidb@x \hbox {\relax \fontsize {7}{8}\selectfont $\leftarrow \joinrel \rhook $}}{}{}Main\discretionary {\unhbox \voidb@x \hbox {\relax \fontsize {7}{8}\selectfont $\leftarrow \joinrel \rhook $}}{}{}Window Class Reference}{26}{section.7.6}
\contentsline {subsection}{\numberline {7.6.1}Constructor \& Destructor Documentation}{27}{subsection.7.6.1}
\contentsline {subsubsection}{\numberline {7.6.1.1}Map\discretionary {\unhbox \voidb@x \hbox {\relax \fontsize {7}{8}\selectfont $\leftarrow \joinrel \rhook $}}{}{}Main\discretionary {\unhbox \voidb@x \hbox {\relax \fontsize {7}{8}\selectfont $\leftarrow \joinrel \rhook $}}{}{}Window}{27}{subsubsection.7.6.1.1}
\contentsline {subsubsection}{\numberline {7.6.1.2}$\sim $\discretionary {\unhbox \voidb@x \hbox {\relax \fontsize {7}{8}\selectfont $\leftarrow \joinrel \rhook $}}{}{}Map\discretionary {\unhbox \voidb@x \hbox {\relax \fontsize {7}{8}\selectfont $\leftarrow \joinrel \rhook $}}{}{}Main\discretionary {\unhbox \voidb@x \hbox {\relax \fontsize {7}{8}\selectfont $\leftarrow \joinrel \rhook $}}{}{}Window}{27}{subsubsection.7.6.1.2}
\contentsline {subsection}{\numberline {7.6.2}Member Function Documentation}{27}{subsection.7.6.2}
\contentsline {subsubsection}{\numberline {7.6.2.1}retranslate}{27}{subsubsection.7.6.2.1}
\contentsline {subsection}{\numberline {7.6.3}Member Data Documentation}{27}{subsection.7.6.3}
\contentsline {subsubsection}{\numberline {7.6.3.1}city\discretionary {\unhbox \voidb@x \hbox {\relax \fontsize {7}{8}\selectfont $\leftarrow \joinrel \rhook $}}{}{}Name}{27}{subsubsection.7.6.3.1}
\contentsline {subsubsection}{\numberline {7.6.3.2}edge\discretionary {\unhbox \voidb@x \hbox {\relax \fontsize {7}{8}\selectfont $\leftarrow \joinrel \rhook $}}{}{}Value}{27}{subsubsection.7.6.3.2}
\contentsline {section}{\numberline {7.7}Map\discretionary {\unhbox \voidb@x \hbox {\relax \fontsize {7}{8}\selectfont $\leftarrow \joinrel \rhook $}}{}{}View Class Reference}{27}{section.7.7}
\contentsline {subsection}{\numberline {7.7.1}Constructor \& Destructor Documentation}{28}{subsection.7.7.1}
\contentsline {subsubsection}{\numberline {7.7.1.1}Map\discretionary {\unhbox \voidb@x \hbox {\relax \fontsize {7}{8}\selectfont $\leftarrow \joinrel \rhook $}}{}{}View}{28}{subsubsection.7.7.1.1}
\contentsline {subsubsection}{\numberline {7.7.1.2}$\sim $\discretionary {\unhbox \voidb@x \hbox {\relax \fontsize {7}{8}\selectfont $\leftarrow \joinrel \rhook $}}{}{}Map\discretionary {\unhbox \voidb@x \hbox {\relax \fontsize {7}{8}\selectfont $\leftarrow \joinrel \rhook $}}{}{}View}{28}{subsubsection.7.7.1.2}
\contentsline {subsection}{\numberline {7.7.2}Member Function Documentation}{28}{subsection.7.7.2}
\contentsline {subsubsection}{\numberline {7.7.2.1}add\discretionary {\unhbox \voidb@x \hbox {\relax \fontsize {7}{8}\selectfont $\leftarrow \joinrel \rhook $}}{}{}Edge}{28}{subsubsection.7.7.2.1}
\contentsline {subsubsection}{\numberline {7.7.2.2}add\discretionary {\unhbox \voidb@x \hbox {\relax \fontsize {7}{8}\selectfont $\leftarrow \joinrel \rhook $}}{}{}Node}{28}{subsubsection.7.7.2.2}
\contentsline {subsubsection}{\numberline {7.7.2.3}clear}{28}{subsubsection.7.7.2.3}
\contentsline {subsubsection}{\numberline {7.7.2.4}edge\discretionary {\unhbox \voidb@x \hbox {\relax \fontsize {7}{8}\selectfont $\leftarrow \joinrel \rhook $}}{}{}Added}{28}{subsubsection.7.7.2.4}
\contentsline {subsubsection}{\numberline {7.7.2.5}has\discretionary {\unhbox \voidb@x \hbox {\relax \fontsize {7}{8}\selectfont $\leftarrow \joinrel \rhook $}}{}{}Selected\discretionary {\unhbox \voidb@x \hbox {\relax \fontsize {7}{8}\selectfont $\leftarrow \joinrel \rhook $}}{}{}Item}{28}{subsubsection.7.7.2.5}
\contentsline {subsubsection}{\numberline {7.7.2.6}mouse\discretionary {\unhbox \voidb@x \hbox {\relax \fontsize {7}{8}\selectfont $\leftarrow \joinrel \rhook $}}{}{}Press\discretionary {\unhbox \voidb@x \hbox {\relax \fontsize {7}{8}\selectfont $\leftarrow \joinrel \rhook $}}{}{}Event}{28}{subsubsection.7.7.2.6}
\contentsline {subsubsection}{\numberline {7.7.2.7}mouse\discretionary {\unhbox \voidb@x \hbox {\relax \fontsize {7}{8}\selectfont $\leftarrow \joinrel \rhook $}}{}{}Release\discretionary {\unhbox \voidb@x \hbox {\relax \fontsize {7}{8}\selectfont $\leftarrow \joinrel \rhook $}}{}{}Event}{28}{subsubsection.7.7.2.7}
\contentsline {subsubsection}{\numberline {7.7.2.8}node\discretionary {\unhbox \voidb@x \hbox {\relax \fontsize {7}{8}\selectfont $\leftarrow \joinrel \rhook $}}{}{}Added}{28}{subsubsection.7.7.2.8}
\contentsline {subsubsection}{\numberline {7.7.2.9}selected\discretionary {\unhbox \voidb@x \hbox {\relax \fontsize {7}{8}\selectfont $\leftarrow \joinrel \rhook $}}{}{}Edge}{28}{subsubsection.7.7.2.9}
\contentsline {subsubsection}{\numberline {7.7.2.10}selected\discretionary {\unhbox \voidb@x \hbox {\relax \fontsize {7}{8}\selectfont $\leftarrow \joinrel \rhook $}}{}{}Item\discretionary {\unhbox \voidb@x \hbox {\relax \fontsize {7}{8}\selectfont $\leftarrow \joinrel \rhook $}}{}{}Type}{28}{subsubsection.7.7.2.10}
\contentsline {subsubsection}{\numberline {7.7.2.11}selected\discretionary {\unhbox \voidb@x \hbox {\relax \fontsize {7}{8}\selectfont $\leftarrow \joinrel \rhook $}}{}{}Node}{28}{subsubsection.7.7.2.11}
\contentsline {subsubsection}{\numberline {7.7.2.12}wheel\discretionary {\unhbox \voidb@x \hbox {\relax \fontsize {7}{8}\selectfont $\leftarrow \joinrel \rhook $}}{}{}Event}{28}{subsubsection.7.7.2.12}
\contentsline {subsubsection}{\numberline {7.7.2.13}zoom\discretionary {\unhbox \voidb@x \hbox {\relax \fontsize {7}{8}\selectfont $\leftarrow \joinrel \rhook $}}{}{}In}{28}{subsubsection.7.7.2.13}
\contentsline {subsubsection}{\numberline {7.7.2.14}zoom\discretionary {\unhbox \voidb@x \hbox {\relax \fontsize {7}{8}\selectfont $\leftarrow \joinrel \rhook $}}{}{}Out}{28}{subsubsection.7.7.2.14}
\contentsline {section}{\numberline {7.8}Node Class Reference}{29}{section.7.8}
\contentsline {subsection}{\numberline {7.8.1}Detailed Description}{29}{subsection.7.8.1}
\contentsline {subsection}{\numberline {7.8.2}Member Enumeration Documentation}{30}{subsection.7.8.2}
\contentsline {subsubsection}{\numberline {7.8.2.1}anonymous enum}{30}{subsubsection.7.8.2.1}
\contentsline {subsection}{\numberline {7.8.3}Constructor \& Destructor Documentation}{30}{subsection.7.8.3}
\contentsline {subsubsection}{\numberline {7.8.3.1}Node}{30}{subsubsection.7.8.3.1}
\contentsline {subsection}{\numberline {7.8.4}Member Function Documentation}{30}{subsection.7.8.4}
\contentsline {subsubsection}{\numberline {7.8.4.1}add\discretionary {\unhbox \voidb@x \hbox {\relax \fontsize {7}{8}\selectfont $\leftarrow \joinrel \rhook $}}{}{}Edge}{30}{subsubsection.7.8.4.1}
\contentsline {subsubsection}{\numberline {7.8.4.2}bounding\discretionary {\unhbox \voidb@x \hbox {\relax \fontsize {7}{8}\selectfont $\leftarrow \joinrel \rhook $}}{}{}Rect}{30}{subsubsection.7.8.4.2}
\contentsline {subsubsection}{\numberline {7.8.4.3}color}{30}{subsubsection.7.8.4.3}
\contentsline {subsubsection}{\numberline {7.8.4.4}edges}{31}{subsubsection.7.8.4.4}
\contentsline {subsubsection}{\numberline {7.8.4.5}item\discretionary {\unhbox \voidb@x \hbox {\relax \fontsize {7}{8}\selectfont $\leftarrow \joinrel \rhook $}}{}{}Change}{31}{subsubsection.7.8.4.5}
\contentsline {subsubsection}{\numberline {7.8.4.6}mouse\discretionary {\unhbox \voidb@x \hbox {\relax \fontsize {7}{8}\selectfont $\leftarrow \joinrel \rhook $}}{}{}Press\discretionary {\unhbox \voidb@x \hbox {\relax \fontsize {7}{8}\selectfont $\leftarrow \joinrel \rhook $}}{}{}Event}{31}{subsubsection.7.8.4.6}
\contentsline {subsubsection}{\numberline {7.8.4.7}mouse\discretionary {\unhbox \voidb@x \hbox {\relax \fontsize {7}{8}\selectfont $\leftarrow \joinrel \rhook $}}{}{}Release\discretionary {\unhbox \voidb@x \hbox {\relax \fontsize {7}{8}\selectfont $\leftarrow \joinrel \rhook $}}{}{}Event}{31}{subsubsection.7.8.4.7}
\contentsline {subsubsection}{\numberline {7.8.4.8}name}{31}{subsubsection.7.8.4.8}
\contentsline {subsubsection}{\numberline {7.8.4.9}paint}{31}{subsubsection.7.8.4.9}
\contentsline {subsubsection}{\numberline {7.8.4.10}set\discretionary {\unhbox \voidb@x \hbox {\relax \fontsize {7}{8}\selectfont $\leftarrow \joinrel \rhook $}}{}{}Color}{32}{subsubsection.7.8.4.10}
\contentsline {subsubsection}{\numberline {7.8.4.11}shape}{32}{subsubsection.7.8.4.11}
\contentsline {subsubsection}{\numberline {7.8.4.12}type}{32}{subsubsection.7.8.4.12}
\contentsline {subsection}{\numberline {7.8.5}Friends And Related Function Documentation}{32}{subsection.7.8.5}
\contentsline {subsubsection}{\numberline {7.8.5.1}operator$<$$<$}{32}{subsubsection.7.8.5.1}
\contentsline {subsubsection}{\numberline {7.8.5.2}operator$>$$>$}{32}{subsubsection.7.8.5.2}
\contentsline {chapter}{\numberline {8}File Documentation}{35}{chapter.8}
\contentsline {section}{\numberline {8.1}dijkstra.\discretionary {\unhbox \voidb@x \hbox {\relax \fontsize {7}{8}\selectfont $\leftarrow \joinrel \rhook $}}{}{}cpp File Reference}{35}{section.8.1}
\contentsline {section}{\numberline {8.2}dijkstra.\discretionary {\unhbox \voidb@x \hbox {\relax \fontsize {7}{8}\selectfont $\leftarrow \joinrel \rhook $}}{}{}h File Reference}{35}{section.8.2}
\contentsline {section}{\numberline {8.3}graph.\discretionary {\unhbox \voidb@x \hbox {\relax \fontsize {7}{8}\selectfont $\leftarrow \joinrel \rhook $}}{}{}h File Reference}{35}{section.8.3}
\contentsline {section}{\numberline {8.4}graphics.\discretionary {\unhbox \voidb@x \hbox {\relax \fontsize {7}{8}\selectfont $\leftarrow \joinrel \rhook $}}{}{}cpp File Reference}{36}{section.8.4}
\contentsline {subsection}{\numberline {8.4.1}Function Documentation}{36}{subsection.8.4.1}
\contentsline {subsubsection}{\numberline {8.4.1.1}operator$<$$<$}{36}{subsubsection.8.4.1.1}
\contentsline {subsubsection}{\numberline {8.4.1.2}operator$<$$<$}{36}{subsubsection.8.4.1.2}
\contentsline {subsubsection}{\numberline {8.4.1.3}operator$>$$>$}{36}{subsubsection.8.4.1.3}
\contentsline {subsubsection}{\numberline {8.4.1.4}pi}{37}{subsubsection.8.4.1.4}
\contentsline {section}{\numberline {8.5}graphics.\discretionary {\unhbox \voidb@x \hbox {\relax \fontsize {7}{8}\selectfont $\leftarrow \joinrel \rhook $}}{}{}h File Reference}{37}{section.8.5}
\contentsline {section}{\numberline {8.6}main.\discretionary {\unhbox \voidb@x \hbox {\relax \fontsize {7}{8}\selectfont $\leftarrow \joinrel \rhook $}}{}{}cpp File Reference}{37}{section.8.6}
\contentsline {subsection}{\numberline {8.6.1}Function Documentation}{37}{subsection.8.6.1}
\contentsline {subsubsection}{\numberline {8.6.1.1}main}{37}{subsubsection.8.6.1.1}
\contentsline {section}{\numberline {8.7}mapmainwindow.\discretionary {\unhbox \voidb@x \hbox {\relax \fontsize {7}{8}\selectfont $\leftarrow \joinrel \rhook $}}{}{}cpp File Reference}{37}{section.8.7}
\contentsline {section}{\numberline {8.8}mapmainwindow.\discretionary {\unhbox \voidb@x \hbox {\relax \fontsize {7}{8}\selectfont $\leftarrow \joinrel \rhook $}}{}{}h File Reference}{38}{section.8.8}
\contentsline {section}{\numberline {8.9}mapview.\discretionary {\unhbox \voidb@x \hbox {\relax \fontsize {7}{8}\selectfont $\leftarrow \joinrel \rhook $}}{}{}cpp File Reference}{38}{section.8.9}
\contentsline {section}{\numberline {8.10}mapview.\discretionary {\unhbox \voidb@x \hbox {\relax \fontsize {7}{8}\selectfont $\leftarrow \joinrel \rhook $}}{}{}h File Reference}{38}{section.8.10}
\contentsline {section}{\numberline {8.11}R\discretionary {\unhbox \voidb@x \hbox {\relax \fontsize {7}{8}\selectfont $\leftarrow \joinrel \rhook $}}{}{}E\discretionary {\unhbox \voidb@x \hbox {\relax \fontsize {7}{8}\selectfont $\leftarrow \joinrel \rhook $}}{}{}A\discretionary {\unhbox \voidb@x \hbox {\relax \fontsize {7}{8}\selectfont $\leftarrow \joinrel \rhook $}}{}{}D\discretionary {\unhbox \voidb@x \hbox {\relax \fontsize {7}{8}\selectfont $\leftarrow \joinrel \rhook $}}{}{}M\discretionary {\unhbox \voidb@x \hbox {\relax \fontsize {7}{8}\selectfont $\leftarrow \joinrel \rhook $}}{}{}E.\discretionary {\unhbox \voidb@x \hbox {\relax \fontsize {7}{8}\selectfont $\leftarrow \joinrel \rhook $}}{}{}md File Reference}{38}{section.8.11}
\contentsline {section}{\numberline {8.12}stdafx.\discretionary {\unhbox \voidb@x \hbox {\relax \fontsize {7}{8}\selectfont $\leftarrow \joinrel \rhook $}}{}{}cpp File Reference}{38}{section.8.12}
\contentsline {section}{\numberline {8.13}stdafx.\discretionary {\unhbox \voidb@x \hbox {\relax \fontsize {7}{8}\selectfont $\leftarrow \joinrel \rhook $}}{}{}h File Reference}{38}{section.8.13}
\contentsline {chapter}{Index}{39}{section*.34}
