\BOOKMARK [0][-]{chapter.1}{\376\377\0001\000\040\000S\000t\000a\000r\000M\000a\000p}{}% 1
\BOOKMARK [0][-]{chapter.2}{\376\377\0002\000\040\000N\000a\000m\000e\000s\000p\000a\000c\000e\000\040\000I\000n\000d\000e\000x}{}% 2
\BOOKMARK [1][-]{section.2.1}{\376\377\0002\000.\0001\000\040\000N\000a\000m\000e\000s\000p\000a\000c\000e\000\040\000L\000i\000s\000t}{chapter.2}% 3
\BOOKMARK [0][-]{chapter.3}{\376\377\0003\000\040\000H\000i\000e\000r\000a\000r\000c\000h\000i\000c\000a\000l\000\040\000I\000n\000d\000e\000x}{}% 4
\BOOKMARK [1][-]{section.3.1}{\376\377\0003\000.\0001\000\040\000C\000l\000a\000s\000s\000\040\000H\000i\000e\000r\000a\000r\000c\000h\000y}{chapter.3}% 5
\BOOKMARK [0][-]{chapter.4}{\376\377\0004\000\040\000C\000l\000a\000s\000s\000\040\000I\000n\000d\000e\000x}{}% 6
\BOOKMARK [1][-]{section.4.1}{\376\377\0004\000.\0001\000\040\000C\000l\000a\000s\000s\000\040\000L\000i\000s\000t}{chapter.4}% 7
\BOOKMARK [0][-]{chapter.5}{\376\377\0005\000\040\000F\000i\000l\000e\000\040\000I\000n\000d\000e\000x}{}% 8
\BOOKMARK [1][-]{section.5.1}{\376\377\0005\000.\0001\000\040\000F\000i\000l\000e\000\040\000L\000i\000s\000t}{chapter.5}% 9
\BOOKMARK [0][-]{chapter.6}{\376\377\0006\000\040\000N\000a\000m\000e\000s\000p\000a\000c\000e\000\040\000D\000o\000c\000u\000m\000e\000n\000t\000a\000t\000i\000o\000n}{}% 10
\BOOKMARK [1][-]{section.6.1}{\376\377\0006\000.\0001\000\040\000S\000p\000a\000c\000e\000M\000a\000p\000E\000d\000i\000t\000o\000r\000\040\000N\000a\000m\000e\000s\000p\000a\000c\000e\000\040\000R\000e\000f\000e\000r\000e\000n\000c\000e}{chapter.6}% 11
\BOOKMARK [1][-]{section.6.2}{\376\377\0006\000.\0002\000\040\000S\000p\000a\000c\000e\000M\000a\000p\000E\000d\000i\000t\000o\000r\000:\000:\000S\000t\000r\000u\000c\000t\000u\000r\000e\000s\000\040\000N\000a\000m\000e\000s\000p\000a\000c\000e\000\040\000R\000e\000f\000e\000r\000e\000n\000c\000e}{chapter.6}% 12
\BOOKMARK [1][-]{section.6.3}{\376\377\0006\000.\0003\000\040\000s\000t\000d\000\040\000N\000a\000m\000e\000s\000p\000a\000c\000e\000\040\000R\000e\000f\000e\000r\000e\000n\000c\000e}{chapter.6}% 13
\BOOKMARK [0][-]{chapter.7}{\376\377\0007\000\040\000C\000l\000a\000s\000s\000\040\000D\000o\000c\000u\000m\000e\000n\000t\000a\000t\000i\000o\000n}{}% 14
\BOOKMARK [1][-]{section.7.1}{\376\377\0007\000.\0001\000\040\000D\000i\000j\000k\000s\000t\000r\000a\000F\000r\000o\000m\000N\000o\000d\000e\000\040\000C\000l\000a\000s\000s\000\040\000R\000e\000f\000e\000r\000e\000n\000c\000e}{chapter.7}% 15
\BOOKMARK [2][-]{subsection.7.1.1}{\376\377\0007\000.\0001\000.\0001\000\040\000D\000e\000t\000a\000i\000l\000e\000d\000\040\000D\000e\000s\000c\000r\000i\000p\000t\000i\000o\000n}{section.7.1}% 16
\BOOKMARK [2][-]{subsection.7.1.2}{\376\377\0007\000.\0001\000.\0002\000\040\000C\000o\000n\000s\000t\000r\000u\000c\000t\000o\000r\000\040\000\046\000\040\000D\000e\000s\000t\000r\000u\000c\000t\000o\000r\000\040\000D\000o\000c\000u\000m\000e\000n\000t\000a\000t\000i\000o\000n}{section.7.1}% 17
\BOOKMARK [3][-]{subsubsection.7.1.2.1}{\376\377\0007\000.\0001\000.\0002\000.\0001\000\040\000D\000i\000j\000k\000s\000t\000r\000a\000F\000r\000o\000m\000N\000o\000d\000e}{subsection.7.1.2}% 18
\BOOKMARK [2][-]{subsection.7.1.3}{\376\377\0007\000.\0001\000.\0003\000\040\000M\000e\000m\000b\000e\000r\000\040\000F\000u\000n\000c\000t\000i\000o\000n\000\040\000D\000o\000c\000u\000m\000e\000n\000t\000a\000t\000i\000o\000n}{section.7.1}% 19
\BOOKMARK [3][-]{subsubsection.7.1.3.1}{\376\377\0007\000.\0001\000.\0003\000.\0001\000\040\000o\000p\000e\000r\000a\000t\000o\000r\000\050\000\051}{subsection.7.1.3}% 20
\BOOKMARK [1][-]{section.7.2}{\376\377\0007\000.\0002\000\040\000D\000i\000j\000k\000s\000t\000r\000a\000T\000o\000N\000o\000d\000e\000\040\000C\000l\000a\000s\000s\000\040\000R\000e\000f\000e\000r\000e\000n\000c\000e}{chapter.7}% 21
\BOOKMARK [2][-]{subsection.7.2.1}{\376\377\0007\000.\0002\000.\0001\000\040\000D\000e\000t\000a\000i\000l\000e\000d\000\040\000D\000e\000s\000c\000r\000i\000p\000t\000i\000o\000n}{section.7.2}% 22
\BOOKMARK [2][-]{subsection.7.2.2}{\376\377\0007\000.\0002\000.\0002\000\040\000C\000o\000n\000s\000t\000r\000u\000c\000t\000o\000r\000\040\000\046\000\040\000D\000e\000s\000t\000r\000u\000c\000t\000o\000r\000\040\000D\000o\000c\000u\000m\000e\000n\000t\000a\000t\000i\000o\000n}{section.7.2}% 23
\BOOKMARK [3][-]{subsubsection.7.2.2.1}{\376\377\0007\000.\0002\000.\0002\000.\0001\000\040\000D\000i\000j\000k\000s\000t\000r\000a\000T\000o\000N\000o\000d\000e}{subsection.7.2.2}% 24
\BOOKMARK [2][-]{subsection.7.2.3}{\376\377\0007\000.\0002\000.\0003\000\040\000M\000e\000m\000b\000e\000r\000\040\000F\000u\000n\000c\000t\000i\000o\000n\000\040\000D\000o\000c\000u\000m\000e\000n\000t\000a\000t\000i\000o\000n}{section.7.2}% 25
\BOOKMARK [3][-]{subsubsection.7.2.3.1}{\376\377\0007\000.\0002\000.\0003\000.\0001\000\040\000o\000p\000e\000r\000a\000t\000o\000r\000\050\000\051}{subsection.7.2.3}% 26
\BOOKMARK [1][-]{section.7.3}{\376\377\0007\000.\0003\000\040\000E\000d\000g\000e\000\040\000C\000l\000a\000s\000s\000\040\000R\000e\000f\000e\000r\000e\000n\000c\000e}{chapter.7}% 27
\BOOKMARK [2][-]{subsection.7.3.1}{\376\377\0007\000.\0003\000.\0001\000\040\000D\000e\000t\000a\000i\000l\000e\000d\000\040\000D\000e\000s\000c\000r\000i\000p\000t\000i\000o\000n}{section.7.3}% 28
\BOOKMARK [2][-]{subsection.7.3.2}{\376\377\0007\000.\0003\000.\0002\000\040\000M\000e\000m\000b\000e\000r\000\040\000E\000n\000u\000m\000e\000r\000a\000t\000i\000o\000n\000\040\000D\000o\000c\000u\000m\000e\000n\000t\000a\000t\000i\000o\000n}{section.7.3}% 29
\BOOKMARK [3][-]{subsubsection.7.3.2.1}{\376\377\0007\000.\0003\000.\0002\000.\0001\000\040\000a\000n\000o\000n\000y\000m\000o\000u\000s\000\040\000e\000n\000u\000m}{subsection.7.3.2}% 30
\BOOKMARK [3][-]{subsubsection.7.3.2.2}{\376\377\0007\000.\0003\000.\0002\000.\0002\000\040\000A\000r\000r\000o\000w\000T\000y\000p\000e}{subsection.7.3.2}% 31
\BOOKMARK [2][-]{subsection.7.3.3}{\376\377\0007\000.\0003\000.\0003\000\040\000C\000o\000n\000s\000t\000r\000u\000c\000t\000o\000r\000\040\000\046\000\040\000D\000e\000s\000t\000r\000u\000c\000t\000o\000r\000\040\000D\000o\000c\000u\000m\000e\000n\000t\000a\000t\000i\000o\000n}{section.7.3}% 32
\BOOKMARK [3][-]{subsubsection.7.3.3.1}{\376\377\0007\000.\0003\000.\0003\000.\0001\000\040\000E\000d\000g\000e}{subsection.7.3.3}% 33
\BOOKMARK [2][-]{subsection.7.3.4}{\376\377\0007\000.\0003\000.\0004\000\040\000M\000e\000m\000b\000e\000r\000\040\000F\000u\000n\000c\000t\000i\000o\000n\000\040\000D\000o\000c\000u\000m\000e\000n\000t\000a\000t\000i\000o\000n}{section.7.3}% 34
\BOOKMARK [3][-]{subsubsection.7.3.4.1}{\376\377\0007\000.\0003\000.\0004\000.\0001\000\040\000a\000d\000j\000u\000s\000t}{subsection.7.3.4}% 35
\BOOKMARK [3][-]{subsubsection.7.3.4.2}{\376\377\0007\000.\0003\000.\0004\000.\0002\000\040\000a\000r\000r\000o\000w\000T\000y\000p\000e}{subsection.7.3.4}% 36
\BOOKMARK [3][-]{subsubsection.7.3.4.3}{\376\377\0007\000.\0003\000.\0004\000.\0003\000\040\000b\000o\000u\000n\000d\000i\000n\000g\000R\000e\000c\000t}{subsection.7.3.4}% 37
\BOOKMARK [3][-]{subsubsection.7.3.4.4}{\376\377\0007\000.\0003\000.\0004\000.\0004\000\040\000c\000o\000l\000o\000r}{subsection.7.3.4}% 38
\BOOKMARK [3][-]{subsubsection.7.3.4.5}{\376\377\0007\000.\0003\000.\0004\000.\0005\000\040\000c\000o\000s\000t}{subsection.7.3.4}% 39
\BOOKMARK [3][-]{subsubsection.7.3.4.6}{\376\377\0007\000.\0003\000.\0004\000.\0006\000\040\000f\000r\000o\000m}{subsection.7.3.4}% 40
\BOOKMARK [3][-]{subsubsection.7.3.4.7}{\376\377\0007\000.\0003\000.\0004\000.\0007\000\040\000p\000a\000i\000n\000t}{subsection.7.3.4}% 41
\BOOKMARK [3][-]{subsubsection.7.3.4.8}{\376\377\0007\000.\0003\000.\0004\000.\0008\000\040\000s\000e\000t\000A\000r\000r\000o\000w\000T\000y\000p\000e}{subsection.7.3.4}% 42
\BOOKMARK [3][-]{subsubsection.7.3.4.9}{\376\377\0007\000.\0003\000.\0004\000.\0009\000\040\000s\000e\000t\000C\000o\000l\000o\000r}{subsection.7.3.4}% 43
\BOOKMARK [3][-]{subsubsection.7.3.4.10}{\376\377\0007\000.\0003\000.\0004\000.\0001\0000\000\040\000s\000e\000t\000C\000o\000s\000t}{subsection.7.3.4}% 44
\BOOKMARK [3][-]{subsubsection.7.3.4.11}{\376\377\0007\000.\0003\000.\0004\000.\0001\0001\000\040\000s\000e\000t\000V\000a\000l\000i\000d}{subsection.7.3.4}% 45
\BOOKMARK [3][-]{subsubsection.7.3.4.12}{\376\377\0007\000.\0003\000.\0004\000.\0001\0002\000\040\000s\000h\000a\000p\000e}{subsection.7.3.4}% 46
\BOOKMARK [3][-]{subsubsection.7.3.4.13}{\376\377\0007\000.\0003\000.\0004\000.\0001\0003\000\040\000t\000o}{subsection.7.3.4}% 47
\BOOKMARK [3][-]{subsubsection.7.3.4.14}{\376\377\0007\000.\0003\000.\0004\000.\0001\0004\000\040\000t\000y\000p\000e}{subsection.7.3.4}% 48
\BOOKMARK [3][-]{subsubsection.7.3.4.15}{\376\377\0007\000.\0003\000.\0004\000.\0001\0005\000\040\000v\000a\000l\000i\000d}{subsection.7.3.4}% 49
\BOOKMARK [2][-]{subsection.7.3.5}{\376\377\0007\000.\0003\000.\0005\000\040\000F\000r\000i\000e\000n\000d\000s\000\040\000A\000n\000d\000\040\000R\000e\000l\000a\000t\000e\000d\000\040\000F\000u\000n\000c\000t\000i\000o\000n\000\040\000D\000o\000c\000u\000m\000e\000n\000t\000a\000t\000i\000o\000n}{section.7.3}% 50
\BOOKMARK [3][-]{subsubsection.7.3.5.1}{\376\377\0007\000.\0003\000.\0005\000.\0001\000\040\000o\000p\000e\000r\000a\000t\000o\000r\000<\000<}{subsection.7.3.5}% 51
\BOOKMARK [1][-]{section.7.4}{\376\377\0007\000.\0004\000\040\000S\000p\000a\000c\000e\000M\000a\000p\000E\000d\000i\000t\000o\000r\000:\000:\000S\000t\000r\000u\000c\000t\000u\000r\000e\000s\000:\000:\000G\000r\000a\000p\000h\000<\000\040\000N\000,\000\040\000E\000,\000\040\000C\000o\000m\000p\000a\000r\000e\000r\000\040\000>\000\040\000C\000l\000a\000s\000s\000\040\000T\000e\000m\000p\000l\000a\000t\000e\000\040\000R\000e\000f\000e\000r\000e\000n\000c\000e}{chapter.7}% 52
\BOOKMARK [2][-]{subsection.7.4.1}{\376\377\0007\000.\0004\000.\0001\000\040\000D\000e\000t\000a\000i\000l\000e\000d\000\040\000D\000e\000s\000c\000r\000i\000p\000t\000i\000o\000n}{section.7.4}% 53
\BOOKMARK [2][-]{subsection.7.4.2}{\376\377\0007\000.\0004\000.\0002\000\040\000M\000e\000m\000b\000e\000r\000\040\000T\000y\000p\000e\000d\000e\000f\000\040\000D\000o\000c\000u\000m\000e\000n\000t\000a\000t\000i\000o\000n}{section.7.4}% 54
\BOOKMARK [3][-]{subsubsection.7.4.2.1}{\376\377\0007\000.\0004\000.\0002\000.\0001\000\040\000E\000d\000g\000e\000s\000L\000i\000s\000t}{subsection.7.4.2}% 55
\BOOKMARK [3][-]{subsubsection.7.4.2.2}{\376\377\0007\000.\0004\000.\0002\000.\0002\000\040\000N\000e\000i\000g\000h\000b\000o\000r\000s\000L\000i\000s\000t}{subsection.7.4.2}% 56
\BOOKMARK [3][-]{subsubsection.7.4.2.3}{\376\377\0007\000.\0004\000.\0002\000.\0003\000\040\000N\000o\000d\000e\000s\000L\000i\000s\000t}{subsection.7.4.2}% 57
\BOOKMARK [2][-]{subsection.7.4.3}{\376\377\0007\000.\0004\000.\0003\000\040\000C\000o\000n\000s\000t\000r\000u\000c\000t\000o\000r\000\040\000\046\000\040\000D\000e\000s\000t\000r\000u\000c\000t\000o\000r\000\040\000D\000o\000c\000u\000m\000e\000n\000t\000a\000t\000i\000o\000n}{section.7.4}% 58
\BOOKMARK [3][-]{subsubsection.7.4.3.1}{\376\377\0007\000.\0004\000.\0003\000.\0001\000\040\000G\000r\000a\000p\000h}{subsection.7.4.3}% 59
\BOOKMARK [3][-]{subsubsection.7.4.3.2}{\376\377\0007\000.\0004\000.\0003\000.\0002\000\040\000G\000r\000a\000p\000h}{subsection.7.4.3}% 60
\BOOKMARK [2][-]{subsection.7.4.4}{\376\377\0007\000.\0004\000.\0004\000\040\000M\000e\000m\000b\000e\000r\000\040\000F\000u\000n\000c\000t\000i\000o\000n\000\040\000D\000o\000c\000u\000m\000e\000n\000t\000a\000t\000i\000o\000n}{section.7.4}% 61
\BOOKMARK [3][-]{subsubsection.7.4.4.1}{\376\377\0007\000.\0004\000.\0004\000.\0001\000\040\000a\000d\000d\000E\000d\000g\000e}{subsection.7.4.4}% 62
\BOOKMARK [3][-]{subsubsection.7.4.4.2}{\376\377\0007\000.\0004\000.\0004\000.\0002\000\040\000a\000d\000d\000N\000o\000d\000e}{subsection.7.4.4}% 63
\BOOKMARK [3][-]{subsubsection.7.4.4.3}{\376\377\0007\000.\0004\000.\0004\000.\0003\000\040\000c\000l\000e\000a\000r}{subsection.7.4.4}% 64
\BOOKMARK [3][-]{subsubsection.7.4.4.4}{\376\377\0007\000.\0004\000.\0004\000.\0004\000\040\000d\000e\000l\000e\000t\000e\000E\000d\000g\000e}{subsection.7.4.4}% 65
\BOOKMARK [3][-]{subsubsection.7.4.4.5}{\376\377\0007\000.\0004\000.\0004\000.\0005\000\040\000e\000d\000g\000e\000s}{subsection.7.4.4}% 66
\BOOKMARK [3][-]{subsubsection.7.4.4.6}{\376\377\0007\000.\0004\000.\0004\000.\0006\000\040\000e\000d\000g\000e\000s}{subsection.7.4.4}% 67
\BOOKMARK [3][-]{subsubsection.7.4.4.7}{\376\377\0007\000.\0004\000.\0004\000.\0007\000\040\000e\000m\000p\000t\000y}{subsection.7.4.4}% 68
\BOOKMARK [3][-]{subsubsection.7.4.4.8}{\376\377\0007\000.\0004\000.\0004\000.\0008\000\040\000f\000i\000n\000d\000E\000d\000g\000e}{subsection.7.4.4}% 69
\BOOKMARK [3][-]{subsubsection.7.4.4.9}{\376\377\0007\000.\0004\000.\0004\000.\0009\000\040\000f\000i\000n\000d\000E\000d\000g\000e}{subsection.7.4.4}% 70
\BOOKMARK [3][-]{subsubsection.7.4.4.10}{\376\377\0007\000.\0004\000.\0004\000.\0001\0000\000\040\000f\000i\000n\000d\000N\000o\000d\000e}{subsection.7.4.4}% 71
\BOOKMARK [3][-]{subsubsection.7.4.4.11}{\376\377\0007\000.\0004\000.\0004\000.\0001\0001\000\040\000n\000e\000i\000g\000h\000b\000o\000r\000s}{subsection.7.4.4}% 72
\BOOKMARK [3][-]{subsubsection.7.4.4.12}{\376\377\0007\000.\0004\000.\0004\000.\0001\0002\000\040\000n\000e\000i\000g\000h\000b\000o\000r\000s}{subsection.7.4.4}% 73
\BOOKMARK [3][-]{subsubsection.7.4.4.13}{\376\377\0007\000.\0004\000.\0004\000.\0001\0003\000\040\000n\000o\000d\000e\000s}{subsection.7.4.4}% 74
\BOOKMARK [3][-]{subsubsection.7.4.4.14}{\376\377\0007\000.\0004\000.\0004\000.\0001\0004\000\040\000n\000o\000d\000e\000s}{subsection.7.4.4}% 75
\BOOKMARK [3][-]{subsubsection.7.4.4.15}{\376\377\0007\000.\0004\000.\0004\000.\0001\0005\000\040\000s\000i\000z\000e}{subsection.7.4.4}% 76
\BOOKMARK [3][-]{subsubsection.7.4.4.16}{\376\377\0007\000.\0004\000.\0004\000.\0001\0006\000\040\000s\000i\000z\000e\000E\000d\000g\000e\000s}{subsection.7.4.4}% 77
\BOOKMARK [1][-]{section.7.5}{\376\377\0007\000.\0005\000\040\000s\000t\000d\000:\000:\000l\000e\000s\000s\000<\000\040\000N\000o\000d\000e\000\040\000\040\000>\000\040\000S\000t\000r\000u\000c\000t\000\040\000T\000e\000m\000p\000l\000a\000t\000e\000\040\000R\000e\000f\000e\000r\000e\000n\000c\000e}{chapter.7}% 78
\BOOKMARK [2][-]{subsection.7.5.1}{\376\377\0007\000.\0005\000.\0001\000\040\000D\000e\000t\000a\000i\000l\000e\000d\000\040\000D\000e\000s\000c\000r\000i\000p\000t\000i\000o\000n}{section.7.5}% 79
\BOOKMARK [2][-]{subsection.7.5.2}{\376\377\0007\000.\0005\000.\0002\000\040\000M\000e\000m\000b\000e\000r\000\040\000F\000u\000n\000c\000t\000i\000o\000n\000\040\000D\000o\000c\000u\000m\000e\000n\000t\000a\000t\000i\000o\000n}{section.7.5}% 80
\BOOKMARK [3][-]{subsubsection.7.5.2.1}{\376\377\0007\000.\0005\000.\0002\000.\0001\000\040\000o\000p\000e\000r\000a\000t\000o\000r\000\050\000\051}{subsection.7.5.2}% 81
\BOOKMARK [1][-]{section.7.6}{\376\377\0007\000.\0006\000\040\000M\000a\000p\000M\000a\000i\000n\000W\000i\000n\000d\000o\000w\000\040\000C\000l\000a\000s\000s\000\040\000R\000e\000f\000e\000r\000e\000n\000c\000e}{chapter.7}% 82
\BOOKMARK [2][-]{subsection.7.6.1}{\376\377\0007\000.\0006\000.\0001\000\040\000C\000o\000n\000s\000t\000r\000u\000c\000t\000o\000r\000\040\000\046\000\040\000D\000e\000s\000t\000r\000u\000c\000t\000o\000r\000\040\000D\000o\000c\000u\000m\000e\000n\000t\000a\000t\000i\000o\000n}{section.7.6}% 83
\BOOKMARK [3][-]{subsubsection.7.6.1.1}{\376\377\0007\000.\0006\000.\0001\000.\0001\000\040\000M\000a\000p\000M\000a\000i\000n\000W\000i\000n\000d\000o\000w}{subsection.7.6.1}% 84
\BOOKMARK [3][-]{subsubsection.7.6.1.2}{\376\377\0007\000.\0006\000.\0001\000.\0002\000\040\000M\000a\000p\000M\000a\000i\000n\000W\000i\000n\000d\000o\000w}{subsection.7.6.1}% 85
\BOOKMARK [2][-]{subsection.7.6.2}{\376\377\0007\000.\0006\000.\0002\000\040\000M\000e\000m\000b\000e\000r\000\040\000F\000u\000n\000c\000t\000i\000o\000n\000\040\000D\000o\000c\000u\000m\000e\000n\000t\000a\000t\000i\000o\000n}{section.7.6}% 86
\BOOKMARK [3][-]{subsubsection.7.6.2.1}{\376\377\0007\000.\0006\000.\0002\000.\0001\000\040\000r\000e\000t\000r\000a\000n\000s\000l\000a\000t\000e}{subsection.7.6.2}% 87
\BOOKMARK [2][-]{subsection.7.6.3}{\376\377\0007\000.\0006\000.\0003\000\040\000M\000e\000m\000b\000e\000r\000\040\000D\000a\000t\000a\000\040\000D\000o\000c\000u\000m\000e\000n\000t\000a\000t\000i\000o\000n}{section.7.6}% 88
\BOOKMARK [3][-]{subsubsection.7.6.3.1}{\376\377\0007\000.\0006\000.\0003\000.\0001\000\040\000c\000i\000t\000y\000N\000a\000m\000e}{subsection.7.6.3}% 89
\BOOKMARK [3][-]{subsubsection.7.6.3.2}{\376\377\0007\000.\0006\000.\0003\000.\0002\000\040\000e\000d\000g\000e\000V\000a\000l\000u\000e}{subsection.7.6.3}% 90
\BOOKMARK [1][-]{section.7.7}{\376\377\0007\000.\0007\000\040\000M\000a\000p\000V\000i\000e\000w\000\040\000C\000l\000a\000s\000s\000\040\000R\000e\000f\000e\000r\000e\000n\000c\000e}{chapter.7}% 91
\BOOKMARK [2][-]{subsection.7.7.1}{\376\377\0007\000.\0007\000.\0001\000\040\000C\000o\000n\000s\000t\000r\000u\000c\000t\000o\000r\000\040\000\046\000\040\000D\000e\000s\000t\000r\000u\000c\000t\000o\000r\000\040\000D\000o\000c\000u\000m\000e\000n\000t\000a\000t\000i\000o\000n}{section.7.7}% 92
\BOOKMARK [3][-]{subsubsection.7.7.1.1}{\376\377\0007\000.\0007\000.\0001\000.\0001\000\040\000M\000a\000p\000V\000i\000e\000w}{subsection.7.7.1}% 93
\BOOKMARK [3][-]{subsubsection.7.7.1.2}{\376\377\0007\000.\0007\000.\0001\000.\0002\000\040\000M\000a\000p\000V\000i\000e\000w}{subsection.7.7.1}% 94
\BOOKMARK [2][-]{subsection.7.7.2}{\376\377\0007\000.\0007\000.\0002\000\040\000M\000e\000m\000b\000e\000r\000\040\000F\000u\000n\000c\000t\000i\000o\000n\000\040\000D\000o\000c\000u\000m\000e\000n\000t\000a\000t\000i\000o\000n}{section.7.7}% 95
\BOOKMARK [3][-]{subsubsection.7.7.2.1}{\376\377\0007\000.\0007\000.\0002\000.\0001\000\040\000a\000d\000d\000E\000d\000g\000e}{subsection.7.7.2}% 96
\BOOKMARK [3][-]{subsubsection.7.7.2.2}{\376\377\0007\000.\0007\000.\0002\000.\0002\000\040\000a\000d\000d\000N\000o\000d\000e}{subsection.7.7.2}% 97
\BOOKMARK [3][-]{subsubsection.7.7.2.3}{\376\377\0007\000.\0007\000.\0002\000.\0003\000\040\000c\000l\000e\000a\000r}{subsection.7.7.2}% 98
\BOOKMARK [3][-]{subsubsection.7.7.2.4}{\376\377\0007\000.\0007\000.\0002\000.\0004\000\040\000e\000d\000g\000e\000A\000d\000d\000e\000d}{subsection.7.7.2}% 99
\BOOKMARK [3][-]{subsubsection.7.7.2.5}{\376\377\0007\000.\0007\000.\0002\000.\0005\000\040\000h\000a\000s\000S\000e\000l\000e\000c\000t\000e\000d\000I\000t\000e\000m}{subsection.7.7.2}% 100
\BOOKMARK [3][-]{subsubsection.7.7.2.6}{\376\377\0007\000.\0007\000.\0002\000.\0006\000\040\000m\000o\000u\000s\000e\000P\000r\000e\000s\000s\000E\000v\000e\000n\000t}{subsection.7.7.2}% 101
\BOOKMARK [3][-]{subsubsection.7.7.2.7}{\376\377\0007\000.\0007\000.\0002\000.\0007\000\040\000m\000o\000u\000s\000e\000R\000e\000l\000e\000a\000s\000e\000E\000v\000e\000n\000t}{subsection.7.7.2}% 102
\BOOKMARK [3][-]{subsubsection.7.7.2.8}{\376\377\0007\000.\0007\000.\0002\000.\0008\000\040\000n\000o\000d\000e\000A\000d\000d\000e\000d}{subsection.7.7.2}% 103
\BOOKMARK [3][-]{subsubsection.7.7.2.9}{\376\377\0007\000.\0007\000.\0002\000.\0009\000\040\000s\000e\000l\000e\000c\000t\000e\000d\000E\000d\000g\000e}{subsection.7.7.2}% 104
\BOOKMARK [3][-]{subsubsection.7.7.2.10}{\376\377\0007\000.\0007\000.\0002\000.\0001\0000\000\040\000s\000e\000l\000e\000c\000t\000e\000d\000I\000t\000e\000m\000T\000y\000p\000e}{subsection.7.7.2}% 105
\BOOKMARK [3][-]{subsubsection.7.7.2.11}{\376\377\0007\000.\0007\000.\0002\000.\0001\0001\000\040\000s\000e\000l\000e\000c\000t\000e\000d\000N\000o\000d\000e}{subsection.7.7.2}% 106
\BOOKMARK [3][-]{subsubsection.7.7.2.12}{\376\377\0007\000.\0007\000.\0002\000.\0001\0002\000\040\000w\000h\000e\000e\000l\000E\000v\000e\000n\000t}{subsection.7.7.2}% 107
\BOOKMARK [3][-]{subsubsection.7.7.2.13}{\376\377\0007\000.\0007\000.\0002\000.\0001\0003\000\040\000z\000o\000o\000m\000I\000n}{subsection.7.7.2}% 108
\BOOKMARK [3][-]{subsubsection.7.7.2.14}{\376\377\0007\000.\0007\000.\0002\000.\0001\0004\000\040\000z\000o\000o\000m\000O\000u\000t}{subsection.7.7.2}% 109
\BOOKMARK [1][-]{section.7.8}{\376\377\0007\000.\0008\000\040\000N\000o\000d\000e\000\040\000C\000l\000a\000s\000s\000\040\000R\000e\000f\000e\000r\000e\000n\000c\000e}{chapter.7}% 110
\BOOKMARK [2][-]{subsection.7.8.1}{\376\377\0007\000.\0008\000.\0001\000\040\000D\000e\000t\000a\000i\000l\000e\000d\000\040\000D\000e\000s\000c\000r\000i\000p\000t\000i\000o\000n}{section.7.8}% 111
\BOOKMARK [2][-]{subsection.7.8.2}{\376\377\0007\000.\0008\000.\0002\000\040\000M\000e\000m\000b\000e\000r\000\040\000E\000n\000u\000m\000e\000r\000a\000t\000i\000o\000n\000\040\000D\000o\000c\000u\000m\000e\000n\000t\000a\000t\000i\000o\000n}{section.7.8}% 112
\BOOKMARK [3][-]{subsubsection.7.8.2.1}{\376\377\0007\000.\0008\000.\0002\000.\0001\000\040\000a\000n\000o\000n\000y\000m\000o\000u\000s\000\040\000e\000n\000u\000m}{subsection.7.8.2}% 113
\BOOKMARK [2][-]{subsection.7.8.3}{\376\377\0007\000.\0008\000.\0003\000\040\000C\000o\000n\000s\000t\000r\000u\000c\000t\000o\000r\000\040\000\046\000\040\000D\000e\000s\000t\000r\000u\000c\000t\000o\000r\000\040\000D\000o\000c\000u\000m\000e\000n\000t\000a\000t\000i\000o\000n}{section.7.8}% 114
\BOOKMARK [3][-]{subsubsection.7.8.3.1}{\376\377\0007\000.\0008\000.\0003\000.\0001\000\040\000N\000o\000d\000e}{subsection.7.8.3}% 115
\BOOKMARK [2][-]{subsection.7.8.4}{\376\377\0007\000.\0008\000.\0004\000\040\000M\000e\000m\000b\000e\000r\000\040\000F\000u\000n\000c\000t\000i\000o\000n\000\040\000D\000o\000c\000u\000m\000e\000n\000t\000a\000t\000i\000o\000n}{section.7.8}% 116
\BOOKMARK [3][-]{subsubsection.7.8.4.1}{\376\377\0007\000.\0008\000.\0004\000.\0001\000\040\000a\000d\000d\000E\000d\000g\000e}{subsection.7.8.4}% 117
\BOOKMARK [3][-]{subsubsection.7.8.4.2}{\376\377\0007\000.\0008\000.\0004\000.\0002\000\040\000b\000o\000u\000n\000d\000i\000n\000g\000R\000e\000c\000t}{subsection.7.8.4}% 118
\BOOKMARK [3][-]{subsubsection.7.8.4.3}{\376\377\0007\000.\0008\000.\0004\000.\0003\000\040\000c\000o\000l\000o\000r}{subsection.7.8.4}% 119
\BOOKMARK [3][-]{subsubsection.7.8.4.4}{\376\377\0007\000.\0008\000.\0004\000.\0004\000\040\000e\000d\000g\000e\000s}{subsection.7.8.4}% 120
\BOOKMARK [3][-]{subsubsection.7.8.4.5}{\376\377\0007\000.\0008\000.\0004\000.\0005\000\040\000i\000t\000e\000m\000C\000h\000a\000n\000g\000e}{subsection.7.8.4}% 121
\BOOKMARK [3][-]{subsubsection.7.8.4.6}{\376\377\0007\000.\0008\000.\0004\000.\0006\000\040\000m\000o\000u\000s\000e\000P\000r\000e\000s\000s\000E\000v\000e\000n\000t}{subsection.7.8.4}% 122
\BOOKMARK [3][-]{subsubsection.7.8.4.7}{\376\377\0007\000.\0008\000.\0004\000.\0007\000\040\000m\000o\000u\000s\000e\000R\000e\000l\000e\000a\000s\000e\000E\000v\000e\000n\000t}{subsection.7.8.4}% 123
\BOOKMARK [3][-]{subsubsection.7.8.4.8}{\376\377\0007\000.\0008\000.\0004\000.\0008\000\040\000n\000a\000m\000e}{subsection.7.8.4}% 124
\BOOKMARK [3][-]{subsubsection.7.8.4.9}{\376\377\0007\000.\0008\000.\0004\000.\0009\000\040\000p\000a\000i\000n\000t}{subsection.7.8.4}% 125
\BOOKMARK [3][-]{subsubsection.7.8.4.10}{\376\377\0007\000.\0008\000.\0004\000.\0001\0000\000\040\000s\000e\000t\000C\000o\000l\000o\000r}{subsection.7.8.4}% 126
\BOOKMARK [3][-]{subsubsection.7.8.4.11}{\376\377\0007\000.\0008\000.\0004\000.\0001\0001\000\040\000s\000h\000a\000p\000e}{subsection.7.8.4}% 127
\BOOKMARK [3][-]{subsubsection.7.8.4.12}{\376\377\0007\000.\0008\000.\0004\000.\0001\0002\000\040\000t\000y\000p\000e}{subsection.7.8.4}% 128
\BOOKMARK [2][-]{subsection.7.8.5}{\376\377\0007\000.\0008\000.\0005\000\040\000F\000r\000i\000e\000n\000d\000s\000\040\000A\000n\000d\000\040\000R\000e\000l\000a\000t\000e\000d\000\040\000F\000u\000n\000c\000t\000i\000o\000n\000\040\000D\000o\000c\000u\000m\000e\000n\000t\000a\000t\000i\000o\000n}{section.7.8}% 129
\BOOKMARK [3][-]{subsubsection.7.8.5.1}{\376\377\0007\000.\0008\000.\0005\000.\0001\000\040\000o\000p\000e\000r\000a\000t\000o\000r\000<\000<}{subsection.7.8.5}% 130
\BOOKMARK [3][-]{subsubsection.7.8.5.2}{\376\377\0007\000.\0008\000.\0005\000.\0002\000\040\000o\000p\000e\000r\000a\000t\000o\000r\000>\000>}{subsection.7.8.5}% 131
\BOOKMARK [0][-]{chapter.8}{\376\377\0008\000\040\000F\000i\000l\000e\000\040\000D\000o\000c\000u\000m\000e\000n\000t\000a\000t\000i\000o\000n}{}% 132
\BOOKMARK [1][-]{section.8.1}{\376\377\0008\000.\0001\000\040\000d\000i\000j\000k\000s\000t\000r\000a\000.\000c\000p\000p\000\040\000F\000i\000l\000e\000\040\000R\000e\000f\000e\000r\000e\000n\000c\000e}{chapter.8}% 133
\BOOKMARK [1][-]{section.8.2}{\376\377\0008\000.\0002\000\040\000d\000i\000j\000k\000s\000t\000r\000a\000.\000h\000\040\000F\000i\000l\000e\000\040\000R\000e\000f\000e\000r\000e\000n\000c\000e}{chapter.8}% 134
\BOOKMARK [1][-]{section.8.3}{\376\377\0008\000.\0003\000\040\000g\000r\000a\000p\000h\000.\000h\000\040\000F\000i\000l\000e\000\040\000R\000e\000f\000e\000r\000e\000n\000c\000e}{chapter.8}% 135
\BOOKMARK [1][-]{section.8.4}{\376\377\0008\000.\0004\000\040\000g\000r\000a\000p\000h\000i\000c\000s\000.\000c\000p\000p\000\040\000F\000i\000l\000e\000\040\000R\000e\000f\000e\000r\000e\000n\000c\000e}{chapter.8}% 136
\BOOKMARK [2][-]{subsection.8.4.1}{\376\377\0008\000.\0004\000.\0001\000\040\000F\000u\000n\000c\000t\000i\000o\000n\000\040\000D\000o\000c\000u\000m\000e\000n\000t\000a\000t\000i\000o\000n}{section.8.4}% 137
\BOOKMARK [3][-]{subsubsection.8.4.1.1}{\376\377\0008\000.\0004\000.\0001\000.\0001\000\040\000o\000p\000e\000r\000a\000t\000o\000r\000<\000<}{subsection.8.4.1}% 138
\BOOKMARK [3][-]{subsubsection.8.4.1.2}{\376\377\0008\000.\0004\000.\0001\000.\0002\000\040\000o\000p\000e\000r\000a\000t\000o\000r\000<\000<}{subsection.8.4.1}% 139
\BOOKMARK [3][-]{subsubsection.8.4.1.3}{\376\377\0008\000.\0004\000.\0001\000.\0003\000\040\000o\000p\000e\000r\000a\000t\000o\000r\000>\000>}{subsection.8.4.1}% 140
\BOOKMARK [3][-]{subsubsection.8.4.1.4}{\376\377\0008\000.\0004\000.\0001\000.\0004\000\040\000p\000i}{subsection.8.4.1}% 141
\BOOKMARK [1][-]{section.8.5}{\376\377\0008\000.\0005\000\040\000g\000r\000a\000p\000h\000i\000c\000s\000.\000h\000\040\000F\000i\000l\000e\000\040\000R\000e\000f\000e\000r\000e\000n\000c\000e}{chapter.8}% 142
\BOOKMARK [1][-]{section.8.6}{\376\377\0008\000.\0006\000\040\000m\000a\000i\000n\000.\000c\000p\000p\000\040\000F\000i\000l\000e\000\040\000R\000e\000f\000e\000r\000e\000n\000c\000e}{chapter.8}% 143
\BOOKMARK [2][-]{subsection.8.6.1}{\376\377\0008\000.\0006\000.\0001\000\040\000F\000u\000n\000c\000t\000i\000o\000n\000\040\000D\000o\000c\000u\000m\000e\000n\000t\000a\000t\000i\000o\000n}{section.8.6}% 144
\BOOKMARK [3][-]{subsubsection.8.6.1.1}{\376\377\0008\000.\0006\000.\0001\000.\0001\000\040\000m\000a\000i\000n}{subsection.8.6.1}% 145
\BOOKMARK [1][-]{section.8.7}{\376\377\0008\000.\0007\000\040\000m\000a\000p\000m\000a\000i\000n\000w\000i\000n\000d\000o\000w\000.\000c\000p\000p\000\040\000F\000i\000l\000e\000\040\000R\000e\000f\000e\000r\000e\000n\000c\000e}{chapter.8}% 146
\BOOKMARK [1][-]{section.8.8}{\376\377\0008\000.\0008\000\040\000m\000a\000p\000m\000a\000i\000n\000w\000i\000n\000d\000o\000w\000.\000h\000\040\000F\000i\000l\000e\000\040\000R\000e\000f\000e\000r\000e\000n\000c\000e}{chapter.8}% 147
\BOOKMARK [1][-]{section.8.9}{\376\377\0008\000.\0009\000\040\000m\000a\000p\000v\000i\000e\000w\000.\000c\000p\000p\000\040\000F\000i\000l\000e\000\040\000R\000e\000f\000e\000r\000e\000n\000c\000e}{chapter.8}% 148
\BOOKMARK [1][-]{section.8.10}{\376\377\0008\000.\0001\0000\000\040\000m\000a\000p\000v\000i\000e\000w\000.\000h\000\040\000F\000i\000l\000e\000\040\000R\000e\000f\000e\000r\000e\000n\000c\000e}{chapter.8}% 149
\BOOKMARK [1][-]{section.8.11}{\376\377\0008\000.\0001\0001\000\040\000R\000E\000A\000D\000M\000E\000.\000m\000d\000\040\000F\000i\000l\000e\000\040\000R\000e\000f\000e\000r\000e\000n\000c\000e}{chapter.8}% 150
\BOOKMARK [1][-]{section.8.12}{\376\377\0008\000.\0001\0002\000\040\000s\000t\000d\000a\000f\000x\000.\000c\000p\000p\000\040\000F\000i\000l\000e\000\040\000R\000e\000f\000e\000r\000e\000n\000c\000e}{chapter.8}% 151
\BOOKMARK [1][-]{section.8.13}{\376\377\0008\000.\0001\0003\000\040\000s\000t\000d\000a\000f\000x\000.\000h\000\040\000F\000i\000l\000e\000\040\000R\000e\000f\000e\000r\000e\000n\000c\000e}{chapter.8}% 152
\BOOKMARK [0][-]{section*.34}{\376\377\000I\000n\000d\000e\000x}{}% 153
