\relax 
\providecommand\hyper@newdestlabel[2]{}
\providecommand\HyperFirstAtBeginDocument{\AtBeginDocument}
\HyperFirstAtBeginDocument{\ifx\hyper@anchor\@undefined
\global\let\oldcontentsline\contentsline
\gdef\contentsline#1#2#3#4{\oldcontentsline{#1}{#2}{#3}}
\global\let\oldnewlabel\newlabel
\gdef\newlabel#1#2{\newlabelxx{#1}#2}
\gdef\newlabelxx#1#2#3#4#5#6{\oldnewlabel{#1}{{#2}{#3}}}
\AtEndDocument{\ifx\hyper@anchor\@undefined
\let\contentsline\oldcontentsline
\let\newlabel\oldnewlabel
\fi}
\fi}
\global\let\hyper@last\relax 
\gdef\HyperFirstAtBeginDocument#1{#1}
\providecommand\HyField@AuxAddToFields[1]{}
\providecommand\HyField@AuxAddToCoFields[2]{}
\providecommand \oddpage@label [2]{}
\@writefile{toc}{\contentsline {chapter}{\numberline {1}Star\discretionary {\unhbox \voidb@x \hbox {\relax \fontsize  {7}{8}\selectfont  $\leftarrow \joinrel  \rhook $}}{}{}Map}{1}{chapter.1}}
\@writefile{lof}{\addvspace {10\p@ }}
\@writefile{lot}{\addvspace {10\p@ }}
\newlabel{md__r_e_a_d_m_e}{{1}{1}{Star\+Map}{chapter.1}{}}
\@writefile{toc}{\contentsline {chapter}{\numberline {2}Namespace Index}{3}{chapter.2}}
\@writefile{lof}{\addvspace {10\p@ }}
\@writefile{lot}{\addvspace {10\p@ }}
\@writefile{toc}{\contentsline {section}{\numberline {2.1}Namespace List}{3}{section.2.1}}
\@writefile{toc}{\contentsline {chapter}{\numberline {3}Hierarchical Index}{5}{chapter.3}}
\@writefile{lof}{\addvspace {10\p@ }}
\@writefile{lot}{\addvspace {10\p@ }}
\@writefile{toc}{\contentsline {section}{\numberline {3.1}Class Hierarchy}{5}{section.3.1}}
\@writefile{toc}{\contentsline {chapter}{\numberline {4}Class Index}{7}{chapter.4}}
\@writefile{lof}{\addvspace {10\p@ }}
\@writefile{lot}{\addvspace {10\p@ }}
\@writefile{toc}{\contentsline {section}{\numberline {4.1}Class List}{7}{section.4.1}}
\@writefile{toc}{\contentsline {chapter}{\numberline {5}File Index}{9}{chapter.5}}
\@writefile{lof}{\addvspace {10\p@ }}
\@writefile{lot}{\addvspace {10\p@ }}
\@writefile{toc}{\contentsline {section}{\numberline {5.1}File List}{9}{section.5.1}}
\@writefile{toc}{\contentsline {chapter}{\numberline {6}Namespace Documentation}{11}{chapter.6}}
\@writefile{lof}{\addvspace {10\p@ }}
\@writefile{lot}{\addvspace {10\p@ }}
\@writefile{toc}{\contentsline {section}{\numberline {6.1}Space\discretionary {\unhbox \voidb@x \hbox {\relax \fontsize  {7}{8}\selectfont  $\leftarrow \joinrel  \rhook $}}{}{}Map\discretionary {\unhbox \voidb@x \hbox {\relax \fontsize  {7}{8}\selectfont  $\leftarrow \joinrel  \rhook $}}{}{}Editor Namespace Reference}{11}{section.6.1}}
\newlabel{namespace_space_map_editor}{{6.1}{11}{Space\+Map\+Editor Namespace Reference}{section.6.1}{}}
\@writefile{toc}{\contentsline {section}{\numberline {6.2}Space\discretionary {\unhbox \voidb@x \hbox {\relax \fontsize  {7}{8}\selectfont  $\leftarrow \joinrel  \rhook $}}{}{}Map\discretionary {\unhbox \voidb@x \hbox {\relax \fontsize  {7}{8}\selectfont  $\leftarrow \joinrel  \rhook $}}{}{}Editor\discretionary {\unhbox \voidb@x \hbox {\relax \fontsize  {7}{8}\selectfont  $\leftarrow \joinrel  \rhook $}}{}{}:\discretionary {\unhbox \voidb@x \hbox {\relax \fontsize  {7}{8}\selectfont  $\leftarrow \joinrel  \rhook $}}{}{}:Structures Namespace Reference}{11}{section.6.2}}
\newlabel{namespace_space_map_editor_1_1_structures}{{6.2}{11}{Space\+Map\+Editor\+:\+:Structures Namespace Reference}{section.6.2}{}}
\@writefile{toc}{\contentsline {section}{\numberline {6.3}std Namespace Reference}{11}{section.6.3}}
\newlabel{namespacestd}{{6.3}{11}{std Namespace Reference}{section.6.3}{}}
\gdef \PWST@i{1}
\@writefile{toc}{\contentsline {chapter}{\numberline {7}Class Documentation}{13}{chapter.7}}
\@writefile{lof}{\addvspace {10\p@ }}
\@writefile{lot}{\addvspace {10\p@ }}
\@writefile{toc}{\contentsline {section}{\numberline {7.1}Dijkstra\discretionary {\unhbox \voidb@x \hbox {\relax \fontsize  {7}{8}\selectfont  $\leftarrow \joinrel  \rhook $}}{}{}From\discretionary {\unhbox \voidb@x \hbox {\relax \fontsize  {7}{8}\selectfont  $\leftarrow \joinrel  \rhook $}}{}{}Node Class Reference}{13}{section.7.1}}
\newlabel{class_dijkstra_from_node}{{7.1}{13}{Dijkstra\+From\+Node Class Reference}{section.7.1}{}}
\@writefile{toc}{\contentsline {subsection}{\numberline {7.1.1}Detailed Description}{13}{subsection.7.1.1}}
\@writefile{toc}{\contentsline {subsection}{\numberline {7.1.2}Constructor \& Destructor Documentation}{13}{subsection.7.1.2}}
\@writefile{toc}{\contentsline {subsubsection}{\numberline {7.1.2.1}Dijkstra\discretionary {\unhbox \voidb@x \hbox {\relax \fontsize  {7}{8}\selectfont  $\leftarrow \joinrel  \rhook $}}{}{}From\discretionary {\unhbox \voidb@x \hbox {\relax \fontsize  {7}{8}\selectfont  $\leftarrow \joinrel  \rhook $}}{}{}Node}{13}{subsubsection.7.1.2.1}}
\newlabel{class_dijkstra_from_node_a3dba1fdb3abd80b5c9931d299c33ddf3}{{7.1.2.1}{13}{Dijkstra\+From\+Node}{subsubsection.7.1.2.1}{}}
\@writefile{toc}{\contentsline {subsection}{\numberline {7.1.3}Member Function Documentation}{13}{subsection.7.1.3}}
\@writefile{toc}{\contentsline {subsubsection}{\numberline {7.1.3.1}operator()}{13}{subsubsection.7.1.3.1}}
\newlabel{class_dijkstra_from_node_ae307e3a754d1c9896e9d69b7551d54bf}{{7.1.3.1}{13}{operator()}{subsubsection.7.1.3.1}{}}
\gdef \PWST@ii{1}
\@writefile{toc}{\contentsline {section}{\numberline {7.2}Dijkstra\discretionary {\unhbox \voidb@x \hbox {\relax \fontsize  {7}{8}\selectfont  $\leftarrow \joinrel  \rhook $}}{}{}To\discretionary {\unhbox \voidb@x \hbox {\relax \fontsize  {7}{8}\selectfont  $\leftarrow \joinrel  \rhook $}}{}{}Node Class Reference}{14}{section.7.2}}
\newlabel{class_dijkstra_to_node}{{7.2}{14}{Dijkstra\+To\+Node Class Reference}{section.7.2}{}}
\@writefile{toc}{\contentsline {subsection}{\numberline {7.2.1}Detailed Description}{14}{subsection.7.2.1}}
\@writefile{toc}{\contentsline {subsection}{\numberline {7.2.2}Constructor \& Destructor Documentation}{14}{subsection.7.2.2}}
\@writefile{toc}{\contentsline {subsubsection}{\numberline {7.2.2.1}Dijkstra\discretionary {\unhbox \voidb@x \hbox {\relax \fontsize  {7}{8}\selectfont  $\leftarrow \joinrel  \rhook $}}{}{}To\discretionary {\unhbox \voidb@x \hbox {\relax \fontsize  {7}{8}\selectfont  $\leftarrow \joinrel  \rhook $}}{}{}Node}{14}{subsubsection.7.2.2.1}}
\newlabel{class_dijkstra_to_node_af938ebd4e02383459d0a9a027827d1c0}{{7.2.2.1}{14}{Dijkstra\+To\+Node}{subsubsection.7.2.2.1}{}}
\@writefile{toc}{\contentsline {subsection}{\numberline {7.2.3}Member Function Documentation}{14}{subsection.7.2.3}}
\@writefile{toc}{\contentsline {subsubsection}{\numberline {7.2.3.1}operator()}{14}{subsubsection.7.2.3.1}}
\newlabel{class_dijkstra_to_node_aec938d14f774ecfa382018df2af3143a}{{7.2.3.1}{14}{operator()}{subsubsection.7.2.3.1}{}}
\@writefile{toc}{\contentsline {section}{\numberline {7.3}Edge Class Reference}{15}{section.7.3}}
\newlabel{class_edge}{{7.3}{15}{Edge Class Reference}{section.7.3}{}}
\@writefile{toc}{\contentsline {subsection}{\numberline {7.3.1}Detailed Description}{15}{subsection.7.3.1}}
\gdef \PWST@iii{1}
\@writefile{toc}{\contentsline {subsection}{\numberline {7.3.2}Member Enumeration Documentation}{16}{subsection.7.3.2}}
\@writefile{toc}{\contentsline {subsubsection}{\numberline {7.3.2.1}anonymous enum}{16}{subsubsection.7.3.2.1}}
\newlabel{class_edge_ab6f2c888279d32fc57c0209bf1abb702}{{7.3.2.1}{16}{anonymous enum}{subsubsection.7.3.2.1}{}}
\newlabel{class_edge_ab6f2c888279d32fc57c0209bf1abb702a59a3ef5ffd963601ffda52bb7bf42b3c}{{7.3.2.1}{16}{\em \hypertarget {class_edge_ab6f2c888279d32fc57c0209bf1abb702a59a3ef5ffd963601ffda52bb7bf42b3c}{}Type}{subsubsection.7.3.2.1}{}}
\@writefile{toc}{\contentsline {subsubsection}{\numberline {7.3.2.2}Arrow\discretionary {\unhbox \voidb@x \hbox {\relax \fontsize  {7}{8}\selectfont  $\leftarrow \joinrel  \rhook $}}{}{}Type}{16}{subsubsection.7.3.2.2}}
\newlabel{class_edge_a240171a80661cc8e5d924e0a8f977ecc}{{7.3.2.2}{16}{Arrow\+Type}{subsubsection.7.3.2.2}{}}
\newlabel{class_edge_a240171a80661cc8e5d924e0a8f977eccaa7e2a634cd8eb30d9c4ffd544ca34f64}{{7.3.2.2}{16}{\em \hypertarget {class_edge_a240171a80661cc8e5d924e0a8f977eccaa7e2a634cd8eb30d9c4ffd544ca34f64}{}None}{subsubsection.7.3.2.2}{}}
\newlabel{class_edge_a240171a80661cc8e5d924e0a8f977eccaf4024c4de99c64c13c259555c5439af3}{{7.3.2.2}{16}{\em \hypertarget {class_edge_a240171a80661cc8e5d924e0a8f977eccaf4024c4de99c64c13c259555c5439af3}{}From}{subsubsection.7.3.2.2}{}}
\newlabel{class_edge_a240171a80661cc8e5d924e0a8f977ecca938d738823a1d2c277390d10bf26ea75}{{7.3.2.2}{16}{\em \hypertarget {class_edge_a240171a80661cc8e5d924e0a8f977ecca938d738823a1d2c277390d10bf26ea75}{}To}{subsubsection.7.3.2.2}{}}
\newlabel{class_edge_a240171a80661cc8e5d924e0a8f977ecca58c6391148a19e8bb81a1f81fe43c588}{{7.3.2.2}{16}{\em \hypertarget {class_edge_a240171a80661cc8e5d924e0a8f977ecca58c6391148a19e8bb81a1f81fe43c588}{}Both}{subsubsection.7.3.2.2}{}}
\@writefile{toc}{\contentsline {subsection}{\numberline {7.3.3}Constructor \& Destructor Documentation}{16}{subsection.7.3.3}}
\@writefile{toc}{\contentsline {subsubsection}{\numberline {7.3.3.1}Edge}{16}{subsubsection.7.3.3.1}}
\newlabel{class_edge_a7d84668a02289bfa5368a1f62954c960}{{7.3.3.1}{16}{Edge}{subsubsection.7.3.3.1}{}}
\@writefile{toc}{\contentsline {subsection}{\numberline {7.3.4}Member Function Documentation}{16}{subsection.7.3.4}}
\@writefile{toc}{\contentsline {subsubsection}{\numberline {7.3.4.1}adjust}{16}{subsubsection.7.3.4.1}}
\newlabel{class_edge_ac98f0dd77c568442ae0635b80b2b4251}{{7.3.4.1}{16}{adjust}{subsubsection.7.3.4.1}{}}
\@writefile{toc}{\contentsline {subsubsection}{\numberline {7.3.4.2}arrow\discretionary {\unhbox \voidb@x \hbox {\relax \fontsize  {7}{8}\selectfont  $\leftarrow \joinrel  \rhook $}}{}{}Type}{16}{subsubsection.7.3.4.2}}
\newlabel{class_edge_a2bb7bea35e5c1a8bfb86e26cc3e14fe1}{{7.3.4.2}{16}{arrow\+Type}{subsubsection.7.3.4.2}{}}
\@writefile{toc}{\contentsline {subsubsection}{\numberline {7.3.4.3}bounding\discretionary {\unhbox \voidb@x \hbox {\relax \fontsize  {7}{8}\selectfont  $\leftarrow \joinrel  \rhook $}}{}{}Rect}{17}{subsubsection.7.3.4.3}}
\newlabel{class_edge_a414eb7f63b639f571e71f1e42198a795}{{7.3.4.3}{17}{bounding\+Rect}{subsubsection.7.3.4.3}{}}
\@writefile{toc}{\contentsline {subsubsection}{\numberline {7.3.4.4}color}{17}{subsubsection.7.3.4.4}}
\newlabel{class_edge_a3a8536c4609efe52bdbe75af0691872b}{{7.3.4.4}{17}{color}{subsubsection.7.3.4.4}{}}
\@writefile{toc}{\contentsline {subsubsection}{\numberline {7.3.4.5}cost}{17}{subsubsection.7.3.4.5}}
\newlabel{class_edge_a127198229152197633026dfbdf9dec9a}{{7.3.4.5}{17}{cost}{subsubsection.7.3.4.5}{}}
\@writefile{toc}{\contentsline {subsubsection}{\numberline {7.3.4.6}from}{17}{subsubsection.7.3.4.6}}
\newlabel{class_edge_a2cdc6a3efb2666ed622a6983d00ebdee}{{7.3.4.6}{17}{from}{subsubsection.7.3.4.6}{}}
\@writefile{toc}{\contentsline {subsubsection}{\numberline {7.3.4.7}paint}{17}{subsubsection.7.3.4.7}}
\newlabel{class_edge_a5ac25b0482fff6c68924031695fe4da7}{{7.3.4.7}{17}{paint}{subsubsection.7.3.4.7}{}}
\gdef \PWST@iv{1}
\gdef \PWST@v{1}
\gdef \PWST@vi{1}
\gdef \PWST@vii{1}
\gdef \PWST@viii{1}
\@writefile{toc}{\contentsline {subsubsection}{\numberline {7.3.4.8}set\discretionary {\unhbox \voidb@x \hbox {\relax \fontsize  {7}{8}\selectfont  $\leftarrow \joinrel  \rhook $}}{}{}Arrow\discretionary {\unhbox \voidb@x \hbox {\relax \fontsize  {7}{8}\selectfont  $\leftarrow \joinrel  \rhook $}}{}{}Type}{18}{subsubsection.7.3.4.8}}
\newlabel{class_edge_a1fa64d06c472af40407b80a5473c844d}{{7.3.4.8}{18}{set\+Arrow\+Type}{subsubsection.7.3.4.8}{}}
\@writefile{toc}{\contentsline {subsubsection}{\numberline {7.3.4.9}set\discretionary {\unhbox \voidb@x \hbox {\relax \fontsize  {7}{8}\selectfont  $\leftarrow \joinrel  \rhook $}}{}{}Color}{18}{subsubsection.7.3.4.9}}
\newlabel{class_edge_a92c4a1742459cf1b23d3af91d2f62a83}{{7.3.4.9}{18}{set\+Color}{subsubsection.7.3.4.9}{}}
\@writefile{toc}{\contentsline {subsubsection}{\numberline {7.3.4.10}set\discretionary {\unhbox \voidb@x \hbox {\relax \fontsize  {7}{8}\selectfont  $\leftarrow \joinrel  \rhook $}}{}{}Cost}{18}{subsubsection.7.3.4.10}}
\newlabel{class_edge_ab3179ae684b5c1dbdd3e167eb5787635}{{7.3.4.10}{18}{set\+Cost}{subsubsection.7.3.4.10}{}}
\@writefile{toc}{\contentsline {subsubsection}{\numberline {7.3.4.11}set\discretionary {\unhbox \voidb@x \hbox {\relax \fontsize  {7}{8}\selectfont  $\leftarrow \joinrel  \rhook $}}{}{}Valid}{18}{subsubsection.7.3.4.11}}
\newlabel{class_edge_acf49d7a63715f4f5e006756c01287c00}{{7.3.4.11}{18}{set\+Valid}{subsubsection.7.3.4.11}{}}
\@writefile{toc}{\contentsline {subsubsection}{\numberline {7.3.4.12}shape}{18}{subsubsection.7.3.4.12}}
\newlabel{class_edge_a67c741058cb49b3c6cc5b126f71ad6c5}{{7.3.4.12}{18}{shape}{subsubsection.7.3.4.12}{}}
\gdef \PWST@ix{1}
\@writefile{toc}{\contentsline {subsubsection}{\numberline {7.3.4.13}to}{19}{subsubsection.7.3.4.13}}
\newlabel{class_edge_a7903c7e3227c04165f67ee25949fa404}{{7.3.4.13}{19}{to}{subsubsection.7.3.4.13}{}}
\@writefile{toc}{\contentsline {subsubsection}{\numberline {7.3.4.14}type}{19}{subsubsection.7.3.4.14}}
\newlabel{class_edge_a9ae46eb35e91e2253434274458aaec55}{{7.3.4.14}{19}{type}{subsubsection.7.3.4.14}{}}
\@writefile{toc}{\contentsline {subsubsection}{\numberline {7.3.4.15}valid}{19}{subsubsection.7.3.4.15}}
\newlabel{class_edge_aa83f81a52e1651dcd717c33b9496eea4}{{7.3.4.15}{19}{valid}{subsubsection.7.3.4.15}{}}
\@writefile{toc}{\contentsline {subsection}{\numberline {7.3.5}Friends And Related Function Documentation}{19}{subsection.7.3.5}}
\@writefile{toc}{\contentsline {subsubsection}{\numberline {7.3.5.1}operator$<$$<$}{19}{subsubsection.7.3.5.1}}
\newlabel{class_edge_a10f97fe8ce490bb2660fce6393d056ea}{{7.3.5.1}{19}{operator$<$$<$}{subsubsection.7.3.5.1}{}}
\@writefile{toc}{\contentsline {section}{\numberline {7.4}Space\discretionary {\unhbox \voidb@x \hbox {\relax \fontsize  {7}{8}\selectfont  $\leftarrow \joinrel  \rhook $}}{}{}Map\discretionary {\unhbox \voidb@x \hbox {\relax \fontsize  {7}{8}\selectfont  $\leftarrow \joinrel  \rhook $}}{}{}Editor\discretionary {\unhbox \voidb@x \hbox {\relax \fontsize  {7}{8}\selectfont  $\leftarrow \joinrel  \rhook $}}{}{}:\discretionary {\unhbox \voidb@x \hbox {\relax \fontsize  {7}{8}\selectfont  $\leftarrow \joinrel  \rhook $}}{}{}:Structures\discretionary {\unhbox \voidb@x \hbox {\relax \fontsize  {7}{8}\selectfont  $\leftarrow \joinrel  \rhook $}}{}{}:\discretionary {\unhbox \voidb@x \hbox {\relax \fontsize  {7}{8}\selectfont  $\leftarrow \joinrel  \rhook $}}{}{}:Graph$<$ N, E, Comparer $>$ Class Template Reference}{19}{section.7.4}}
\newlabel{class_space_map_editor_1_1_structures_1_1_graph}{{7.4}{19}{Space\+Map\+Editor\+:\+:Structures\+:\+:Graph$<$ N, E, Comparer $>$ Class Template Reference}{section.7.4}{}}
\gdef \PWST@x{1}
\gdef \PWST@xi{1}
\@writefile{toc}{\contentsline {subsection}{\numberline {7.4.1}Detailed Description}{20}{subsection.7.4.1}}
\@writefile{toc}{\contentsline {subsection}{\numberline {7.4.2}Member Typedef Documentation}{20}{subsection.7.4.2}}
\@writefile{toc}{\contentsline {subsubsection}{\numberline {7.4.2.1}Edges\discretionary {\unhbox \voidb@x \hbox {\relax \fontsize  {7}{8}\selectfont  $\leftarrow \joinrel  \rhook $}}{}{}List}{20}{subsubsection.7.4.2.1}}
\newlabel{class_space_map_editor_1_1_structures_1_1_graph_affc07344b6028d49fd78976e86a89c99}{{7.4.2.1}{20}{Edges\+List}{subsubsection.7.4.2.1}{}}
\gdef \PWST@xii{1}
\gdef \PWST@xiii{1}
\gdef \PWST@xiv{1}
\@writefile{toc}{\contentsline {subsubsection}{\numberline {7.4.2.2}Neighbors\discretionary {\unhbox \voidb@x \hbox {\relax \fontsize  {7}{8}\selectfont  $\leftarrow \joinrel  \rhook $}}{}{}List}{21}{subsubsection.7.4.2.2}}
\newlabel{class_space_map_editor_1_1_structures_1_1_graph_a7090e9a2665740969dd560e8a8660fe6}{{7.4.2.2}{21}{Neighbors\+List}{subsubsection.7.4.2.2}{}}
\@writefile{toc}{\contentsline {subsubsection}{\numberline {7.4.2.3}Nodes\discretionary {\unhbox \voidb@x \hbox {\relax \fontsize  {7}{8}\selectfont  $\leftarrow \joinrel  \rhook $}}{}{}List}{21}{subsubsection.7.4.2.3}}
\newlabel{class_space_map_editor_1_1_structures_1_1_graph_aefa2fab0731319b8455ce01fe0bb193c}{{7.4.2.3}{21}{Nodes\+List}{subsubsection.7.4.2.3}{}}
\@writefile{toc}{\contentsline {subsection}{\numberline {7.4.3}Constructor \& Destructor Documentation}{21}{subsection.7.4.3}}
\@writefile{toc}{\contentsline {subsubsection}{\numberline {7.4.3.1}Graph}{21}{subsubsection.7.4.3.1}}
\newlabel{class_space_map_editor_1_1_structures_1_1_graph_ae7e17e27d0f43749b22c12360f0e325d}{{7.4.3.1}{21}{Graph}{subsubsection.7.4.3.1}{}}
\@writefile{toc}{\contentsline {subsubsection}{\numberline {7.4.3.2}$\sim $\discretionary {\unhbox \voidb@x \hbox {\relax \fontsize  {7}{8}\selectfont  $\leftarrow \joinrel  \rhook $}}{}{}Graph}{21}{subsubsection.7.4.3.2}}
\newlabel{class_space_map_editor_1_1_structures_1_1_graph_affeb690a583e0c51aae0ab3122dab6a4}{{7.4.3.2}{21}{$\sim $\+Graph}{subsubsection.7.4.3.2}{}}
\@writefile{toc}{\contentsline {subsection}{\numberline {7.4.4}Member Function Documentation}{21}{subsection.7.4.4}}
\@writefile{toc}{\contentsline {subsubsection}{\numberline {7.4.4.1}add\discretionary {\unhbox \voidb@x \hbox {\relax \fontsize  {7}{8}\selectfont  $\leftarrow \joinrel  \rhook $}}{}{}Edge}{21}{subsubsection.7.4.4.1}}
\newlabel{class_space_map_editor_1_1_structures_1_1_graph_a10ca35625edfcc09f58554ce06d296cc}{{7.4.4.1}{21}{add\+Edge}{subsubsection.7.4.4.1}{}}
\@writefile{toc}{\contentsline {subsubsection}{\numberline {7.4.4.2}add\discretionary {\unhbox \voidb@x \hbox {\relax \fontsize  {7}{8}\selectfont  $\leftarrow \joinrel  \rhook $}}{}{}Node}{21}{subsubsection.7.4.4.2}}
\newlabel{class_space_map_editor_1_1_structures_1_1_graph_a96bd74fa94e2202df73afb31fe99037d}{{7.4.4.2}{21}{add\+Node}{subsubsection.7.4.4.2}{}}
\gdef \PWST@xv{2}
\gdef \PWST@xvi{1}
\gdef \PWST@xvii{1}
\gdef \PWST@xviii{1}
\@writefile{toc}{\contentsline {subsubsection}{\numberline {7.4.4.3}clear}{22}{subsubsection.7.4.4.3}}
\newlabel{class_space_map_editor_1_1_structures_1_1_graph_aa23ddf0a2a9238af67bafe5903c54e96}{{7.4.4.3}{22}{clear}{subsubsection.7.4.4.3}{}}
\@writefile{toc}{\contentsline {subsubsection}{\numberline {7.4.4.4}delete\discretionary {\unhbox \voidb@x \hbox {\relax \fontsize  {7}{8}\selectfont  $\leftarrow \joinrel  \rhook $}}{}{}Edge}{22}{subsubsection.7.4.4.4}}
\newlabel{class_space_map_editor_1_1_structures_1_1_graph_a2508bf2d02e42aebc708a6e394574cf2}{{7.4.4.4}{22}{delete\+Edge}{subsubsection.7.4.4.4}{}}
\@writefile{toc}{\contentsline {subsubsection}{\numberline {7.4.4.5}edges}{22}{subsubsection.7.4.4.5}}
\newlabel{class_space_map_editor_1_1_structures_1_1_graph_a204e090202b8540e3910abaa825c205c}{{7.4.4.5}{22}{edges}{subsubsection.7.4.4.5}{}}
\@writefile{toc}{\contentsline {subsubsection}{\numberline {7.4.4.6}edges}{22}{subsubsection.7.4.4.6}}
\newlabel{class_space_map_editor_1_1_structures_1_1_graph_ae163688f4931dfa0067286c44ac0bc70}{{7.4.4.6}{22}{edges}{subsubsection.7.4.4.6}{}}
\@writefile{toc}{\contentsline {subsubsection}{\numberline {7.4.4.7}empty}{22}{subsubsection.7.4.4.7}}
\newlabel{class_space_map_editor_1_1_structures_1_1_graph_a3ac476a2be861dae4a62af607a345766}{{7.4.4.7}{22}{empty}{subsubsection.7.4.4.7}{}}
\@writefile{toc}{\contentsline {subsubsection}{\numberline {7.4.4.8}find\discretionary {\unhbox \voidb@x \hbox {\relax \fontsize  {7}{8}\selectfont  $\leftarrow \joinrel  \rhook $}}{}{}Edge}{23}{subsubsection.7.4.4.8}}
\newlabel{class_space_map_editor_1_1_structures_1_1_graph_a78692ef741a740695a8ab5bb2276f4c8}{{7.4.4.8}{23}{find\+Edge}{subsubsection.7.4.4.8}{}}
\gdef \PWST@xix{1}
\gdef \PWST@xx{1}
\gdef \PWST@xxi{1}
\gdef \PWST@xxii{1}
\gdef \PWST@xxiii{1}
\gdef \PWST@xxiv{1}
\gdef \PWST@xxv{1}
\gdef \PWST@xxvi{1}
\@writefile{toc}{\contentsline {subsubsection}{\numberline {7.4.4.9}find\discretionary {\unhbox \voidb@x \hbox {\relax \fontsize  {7}{8}\selectfont  $\leftarrow \joinrel  \rhook $}}{}{}Edge}{24}{subsubsection.7.4.4.9}}
\newlabel{class_space_map_editor_1_1_structures_1_1_graph_a6793d4e6867488db038341b52926b323}{{7.4.4.9}{24}{find\+Edge}{subsubsection.7.4.4.9}{}}
\@writefile{toc}{\contentsline {subsubsection}{\numberline {7.4.4.10}find\discretionary {\unhbox \voidb@x \hbox {\relax \fontsize  {7}{8}\selectfont  $\leftarrow \joinrel  \rhook $}}{}{}Node}{24}{subsubsection.7.4.4.10}}
\newlabel{class_space_map_editor_1_1_structures_1_1_graph_abe5abdf20b7a25db72a4844972ef8430}{{7.4.4.10}{24}{find\+Node}{subsubsection.7.4.4.10}{}}
\@writefile{toc}{\contentsline {subsubsection}{\numberline {7.4.4.11}neighbors}{24}{subsubsection.7.4.4.11}}
\newlabel{class_space_map_editor_1_1_structures_1_1_graph_a3054af07dca72035891e092039307d44}{{7.4.4.11}{24}{neighbors}{subsubsection.7.4.4.11}{}}
\gdef \PWST@xxvii{2}
\gdef \PWST@xxviii{1}
\gdef \PWST@xxix{1}
\gdef \PWST@xxx{1}
\gdef \PWST@xxxi{1}
\@writefile{toc}{\contentsline {subsubsection}{\numberline {7.4.4.12}neighbors}{25}{subsubsection.7.4.4.12}}
\newlabel{class_space_map_editor_1_1_structures_1_1_graph_a27f4b656f34cfc5bdfef1efe8efb2365}{{7.4.4.12}{25}{neighbors}{subsubsection.7.4.4.12}{}}
\@writefile{toc}{\contentsline {subsubsection}{\numberline {7.4.4.13}nodes}{25}{subsubsection.7.4.4.13}}
\newlabel{class_space_map_editor_1_1_structures_1_1_graph_a470e28800fe634631606101a968b0849}{{7.4.4.13}{25}{nodes}{subsubsection.7.4.4.13}{}}
\@writefile{toc}{\contentsline {subsubsection}{\numberline {7.4.4.14}nodes}{25}{subsubsection.7.4.4.14}}
\newlabel{class_space_map_editor_1_1_structures_1_1_graph_ae03bdd33d353d11ff0ccf3a455c96beb}{{7.4.4.14}{25}{nodes}{subsubsection.7.4.4.14}{}}
\@writefile{toc}{\contentsline {subsubsection}{\numberline {7.4.4.15}size}{25}{subsubsection.7.4.4.15}}
\newlabel{class_space_map_editor_1_1_structures_1_1_graph_a46be3da9535bad4c69972677fb28120e}{{7.4.4.15}{25}{size}{subsubsection.7.4.4.15}{}}
\@writefile{toc}{\contentsline {subsubsection}{\numberline {7.4.4.16}size\discretionary {\unhbox \voidb@x \hbox {\relax \fontsize  {7}{8}\selectfont  $\leftarrow \joinrel  \rhook $}}{}{}Edges}{26}{subsubsection.7.4.4.16}}
\newlabel{class_space_map_editor_1_1_structures_1_1_graph_ad6b05ba4ca8ccbf8be8061c0e816e5c0}{{7.4.4.16}{26}{size\+Edges}{subsubsection.7.4.4.16}{}}
\@writefile{toc}{\contentsline {section}{\numberline {7.5}std\discretionary {\unhbox \voidb@x \hbox {\relax \fontsize  {7}{8}\selectfont  $\leftarrow \joinrel  \rhook $}}{}{}:\discretionary {\unhbox \voidb@x \hbox {\relax \fontsize  {7}{8}\selectfont  $\leftarrow \joinrel  \rhook $}}{}{}:less$<$ Node $\ast $ $>$ Struct Template Reference}{26}{section.7.5}}
\newlabel{structstd_1_1less_3_01_node_01_5_01_4}{{7.5}{26}{std\+:\+:less$<$ Node $\ast $ $>$ Struct Template Reference}{section.7.5}{}}
\@writefile{toc}{\contentsline {subsection}{\numberline {7.5.1}Detailed Description}{26}{subsection.7.5.1}}
\@writefile{toc}{\contentsline {subsection}{\numberline {7.5.2}Member Function Documentation}{26}{subsection.7.5.2}}
\@writefile{toc}{\contentsline {subsubsection}{\numberline {7.5.2.1}operator()}{26}{subsubsection.7.5.2.1}}
\newlabel{structstd_1_1less_3_01_node_01_5_01_4_a9538be2ee7d547abef3223ed8118492f}{{7.5.2.1}{26}{operator()}{subsubsection.7.5.2.1}{}}
\@writefile{toc}{\contentsline {section}{\numberline {7.6}Map\discretionary {\unhbox \voidb@x \hbox {\relax \fontsize  {7}{8}\selectfont  $\leftarrow \joinrel  \rhook $}}{}{}Main\discretionary {\unhbox \voidb@x \hbox {\relax \fontsize  {7}{8}\selectfont  $\leftarrow \joinrel  \rhook $}}{}{}Window Class Reference}{26}{section.7.6}}
\newlabel{class_map_main_window}{{7.6}{26}{Map\+Main\+Window Class Reference}{section.7.6}{}}
\@writefile{toc}{\contentsline {subsection}{\numberline {7.6.1}Constructor \& Destructor Documentation}{27}{subsection.7.6.1}}
\@writefile{toc}{\contentsline {subsubsection}{\numberline {7.6.1.1}Map\discretionary {\unhbox \voidb@x \hbox {\relax \fontsize  {7}{8}\selectfont  $\leftarrow \joinrel  \rhook $}}{}{}Main\discretionary {\unhbox \voidb@x \hbox {\relax \fontsize  {7}{8}\selectfont  $\leftarrow \joinrel  \rhook $}}{}{}Window}{27}{subsubsection.7.6.1.1}}
\newlabel{class_map_main_window_a616c60ecd0c7a05e8c3ff6fa18883188}{{7.6.1.1}{27}{Map\+Main\+Window}{subsubsection.7.6.1.1}{}}
\@writefile{toc}{\contentsline {subsubsection}{\numberline {7.6.1.2}$\sim $\discretionary {\unhbox \voidb@x \hbox {\relax \fontsize  {7}{8}\selectfont  $\leftarrow \joinrel  \rhook $}}{}{}Map\discretionary {\unhbox \voidb@x \hbox {\relax \fontsize  {7}{8}\selectfont  $\leftarrow \joinrel  \rhook $}}{}{}Main\discretionary {\unhbox \voidb@x \hbox {\relax \fontsize  {7}{8}\selectfont  $\leftarrow \joinrel  \rhook $}}{}{}Window}{27}{subsubsection.7.6.1.2}}
\newlabel{class_map_main_window_a4810974b97289ba1f8096802f2c0c28b}{{7.6.1.2}{27}{$\sim $\+Map\+Main\+Window}{subsubsection.7.6.1.2}{}}
\@writefile{toc}{\contentsline {subsection}{\numberline {7.6.2}Member Function Documentation}{27}{subsection.7.6.2}}
\@writefile{toc}{\contentsline {subsubsection}{\numberline {7.6.2.1}retranslate}{27}{subsubsection.7.6.2.1}}
\newlabel{class_map_main_window_aef891bac8c1bc9c14e057c25bffdfcf1}{{7.6.2.1}{27}{retranslate}{subsubsection.7.6.2.1}{}}
\@writefile{toc}{\contentsline {subsection}{\numberline {7.6.3}Member Data Documentation}{27}{subsection.7.6.3}}
\@writefile{toc}{\contentsline {subsubsection}{\numberline {7.6.3.1}city\discretionary {\unhbox \voidb@x \hbox {\relax \fontsize  {7}{8}\selectfont  $\leftarrow \joinrel  \rhook $}}{}{}Name}{27}{subsubsection.7.6.3.1}}
\newlabel{class_map_main_window_a7876a45715a6c09d745667763dcd34f9}{{7.6.3.1}{27}{city\+Name}{subsubsection.7.6.3.1}{}}
\@writefile{toc}{\contentsline {subsubsection}{\numberline {7.6.3.2}edge\discretionary {\unhbox \voidb@x \hbox {\relax \fontsize  {7}{8}\selectfont  $\leftarrow \joinrel  \rhook $}}{}{}Value}{27}{subsubsection.7.6.3.2}}
\newlabel{class_map_main_window_a27c065564d8a68ffaaf3bdb417a20c9d}{{7.6.3.2}{27}{edge\+Value}{subsubsection.7.6.3.2}{}}
\@writefile{toc}{\contentsline {section}{\numberline {7.7}Map\discretionary {\unhbox \voidb@x \hbox {\relax \fontsize  {7}{8}\selectfont  $\leftarrow \joinrel  \rhook $}}{}{}View Class Reference}{27}{section.7.7}}
\newlabel{class_map_view}{{7.7}{27}{Map\+View Class Reference}{section.7.7}{}}
\@writefile{toc}{\contentsline {subsection}{\numberline {7.7.1}Constructor \& Destructor Documentation}{28}{subsection.7.7.1}}
\@writefile{toc}{\contentsline {subsubsection}{\numberline {7.7.1.1}Map\discretionary {\unhbox \voidb@x \hbox {\relax \fontsize  {7}{8}\selectfont  $\leftarrow \joinrel  \rhook $}}{}{}View}{28}{subsubsection.7.7.1.1}}
\newlabel{class_map_view_aacb61cf71a813b33138ec79ae85859fe}{{7.7.1.1}{28}{Map\+View}{subsubsection.7.7.1.1}{}}
\@writefile{toc}{\contentsline {subsubsection}{\numberline {7.7.1.2}$\sim $\discretionary {\unhbox \voidb@x \hbox {\relax \fontsize  {7}{8}\selectfont  $\leftarrow \joinrel  \rhook $}}{}{}Map\discretionary {\unhbox \voidb@x \hbox {\relax \fontsize  {7}{8}\selectfont  $\leftarrow \joinrel  \rhook $}}{}{}View}{28}{subsubsection.7.7.1.2}}
\newlabel{class_map_view_a6c3788b3c08e116287872347b3b0e9f6}{{7.7.1.2}{28}{$\sim $\+Map\+View}{subsubsection.7.7.1.2}{}}
\@writefile{toc}{\contentsline {subsection}{\numberline {7.7.2}Member Function Documentation}{28}{subsection.7.7.2}}
\@writefile{toc}{\contentsline {subsubsection}{\numberline {7.7.2.1}add\discretionary {\unhbox \voidb@x \hbox {\relax \fontsize  {7}{8}\selectfont  $\leftarrow \joinrel  \rhook $}}{}{}Edge}{28}{subsubsection.7.7.2.1}}
\newlabel{class_map_view_a4d55b5730ba2ebf6ecf41ab4b6713e11}{{7.7.2.1}{28}{add\+Edge}{subsubsection.7.7.2.1}{}}
\@writefile{toc}{\contentsline {subsubsection}{\numberline {7.7.2.2}add\discretionary {\unhbox \voidb@x \hbox {\relax \fontsize  {7}{8}\selectfont  $\leftarrow \joinrel  \rhook $}}{}{}Node}{28}{subsubsection.7.7.2.2}}
\newlabel{class_map_view_a6e4fe59f6a65de270612adbfd4739fd2}{{7.7.2.2}{28}{add\+Node}{subsubsection.7.7.2.2}{}}
\@writefile{toc}{\contentsline {subsubsection}{\numberline {7.7.2.3}clear}{28}{subsubsection.7.7.2.3}}
\newlabel{class_map_view_ad1e67a99727ab64e80d161b6c0c46af9}{{7.7.2.3}{28}{clear}{subsubsection.7.7.2.3}{}}
\@writefile{toc}{\contentsline {subsubsection}{\numberline {7.7.2.4}edge\discretionary {\unhbox \voidb@x \hbox {\relax \fontsize  {7}{8}\selectfont  $\leftarrow \joinrel  \rhook $}}{}{}Added}{28}{subsubsection.7.7.2.4}}
\newlabel{class_map_view_a2d27b72897c3bb15cf91ce1a7e4f0d78}{{7.7.2.4}{28}{edge\+Added}{subsubsection.7.7.2.4}{}}
\@writefile{toc}{\contentsline {subsubsection}{\numberline {7.7.2.5}has\discretionary {\unhbox \voidb@x \hbox {\relax \fontsize  {7}{8}\selectfont  $\leftarrow \joinrel  \rhook $}}{}{}Selected\discretionary {\unhbox \voidb@x \hbox {\relax \fontsize  {7}{8}\selectfont  $\leftarrow \joinrel  \rhook $}}{}{}Item}{28}{subsubsection.7.7.2.5}}
\newlabel{class_map_view_a95974b5cff6c2970692fc12a83711482}{{7.7.2.5}{28}{has\+Selected\+Item}{subsubsection.7.7.2.5}{}}
\@writefile{toc}{\contentsline {subsubsection}{\numberline {7.7.2.6}mouse\discretionary {\unhbox \voidb@x \hbox {\relax \fontsize  {7}{8}\selectfont  $\leftarrow \joinrel  \rhook $}}{}{}Press\discretionary {\unhbox \voidb@x \hbox {\relax \fontsize  {7}{8}\selectfont  $\leftarrow \joinrel  \rhook $}}{}{}Event}{28}{subsubsection.7.7.2.6}}
\newlabel{class_map_view_acd37bae8e671f9e20ffeb9e27b048702}{{7.7.2.6}{28}{mouse\+Press\+Event}{subsubsection.7.7.2.6}{}}
\@writefile{toc}{\contentsline {subsubsection}{\numberline {7.7.2.7}mouse\discretionary {\unhbox \voidb@x \hbox {\relax \fontsize  {7}{8}\selectfont  $\leftarrow \joinrel  \rhook $}}{}{}Release\discretionary {\unhbox \voidb@x \hbox {\relax \fontsize  {7}{8}\selectfont  $\leftarrow \joinrel  \rhook $}}{}{}Event}{28}{subsubsection.7.7.2.7}}
\newlabel{class_map_view_acac5ee10b0da5652ee720a4ff6ea99e1}{{7.7.2.7}{28}{mouse\+Release\+Event}{subsubsection.7.7.2.7}{}}
\@writefile{toc}{\contentsline {subsubsection}{\numberline {7.7.2.8}node\discretionary {\unhbox \voidb@x \hbox {\relax \fontsize  {7}{8}\selectfont  $\leftarrow \joinrel  \rhook $}}{}{}Added}{28}{subsubsection.7.7.2.8}}
\newlabel{class_map_view_a656f859e9daddb79bfc126757a06c97f}{{7.7.2.8}{28}{node\+Added}{subsubsection.7.7.2.8}{}}
\@writefile{toc}{\contentsline {subsubsection}{\numberline {7.7.2.9}selected\discretionary {\unhbox \voidb@x \hbox {\relax \fontsize  {7}{8}\selectfont  $\leftarrow \joinrel  \rhook $}}{}{}Edge}{28}{subsubsection.7.7.2.9}}
\newlabel{class_map_view_adcb88198f128e188ad50c511b9dd86ba}{{7.7.2.9}{28}{selected\+Edge}{subsubsection.7.7.2.9}{}}
\@writefile{toc}{\contentsline {subsubsection}{\numberline {7.7.2.10}selected\discretionary {\unhbox \voidb@x \hbox {\relax \fontsize  {7}{8}\selectfont  $\leftarrow \joinrel  \rhook $}}{}{}Item\discretionary {\unhbox \voidb@x \hbox {\relax \fontsize  {7}{8}\selectfont  $\leftarrow \joinrel  \rhook $}}{}{}Type}{28}{subsubsection.7.7.2.10}}
\newlabel{class_map_view_a612d091472aa9ac02bfe717cc78abeee}{{7.7.2.10}{28}{selected\+Item\+Type}{subsubsection.7.7.2.10}{}}
\@writefile{toc}{\contentsline {subsubsection}{\numberline {7.7.2.11}selected\discretionary {\unhbox \voidb@x \hbox {\relax \fontsize  {7}{8}\selectfont  $\leftarrow \joinrel  \rhook $}}{}{}Node}{28}{subsubsection.7.7.2.11}}
\newlabel{class_map_view_aed80d76d2b97f81ebc7978660b1c58c7}{{7.7.2.11}{28}{selected\+Node}{subsubsection.7.7.2.11}{}}
\@writefile{toc}{\contentsline {subsubsection}{\numberline {7.7.2.12}wheel\discretionary {\unhbox \voidb@x \hbox {\relax \fontsize  {7}{8}\selectfont  $\leftarrow \joinrel  \rhook $}}{}{}Event}{28}{subsubsection.7.7.2.12}}
\newlabel{class_map_view_aea3dedb1d1f04927848713e275167e96}{{7.7.2.12}{28}{wheel\+Event}{subsubsection.7.7.2.12}{}}
\@writefile{toc}{\contentsline {subsubsection}{\numberline {7.7.2.13}zoom\discretionary {\unhbox \voidb@x \hbox {\relax \fontsize  {7}{8}\selectfont  $\leftarrow \joinrel  \rhook $}}{}{}In}{28}{subsubsection.7.7.2.13}}
\newlabel{class_map_view_a0a03b3c480c8b325224d53aa47260cfc}{{7.7.2.13}{28}{zoom\+In}{subsubsection.7.7.2.13}{}}
\@writefile{toc}{\contentsline {subsubsection}{\numberline {7.7.2.14}zoom\discretionary {\unhbox \voidb@x \hbox {\relax \fontsize  {7}{8}\selectfont  $\leftarrow \joinrel  \rhook $}}{}{}Out}{28}{subsubsection.7.7.2.14}}
\newlabel{class_map_view_a49475ba1ad48e573f4b3c023df17b8c0}{{7.7.2.14}{28}{zoom\+Out}{subsubsection.7.7.2.14}{}}
\@writefile{toc}{\contentsline {section}{\numberline {7.8}Node Class Reference}{29}{section.7.8}}
\newlabel{class_node}{{7.8}{29}{Node Class Reference}{section.7.8}{}}
\@writefile{toc}{\contentsline {subsection}{\numberline {7.8.1}Detailed Description}{29}{subsection.7.8.1}}
\gdef \PWST@xxxii{1}
\gdef \PWST@xxxiii{1}
\@writefile{toc}{\contentsline {subsection}{\numberline {7.8.2}Member Enumeration Documentation}{30}{subsection.7.8.2}}
\@writefile{toc}{\contentsline {subsubsection}{\numberline {7.8.2.1}anonymous enum}{30}{subsubsection.7.8.2.1}}
\newlabel{class_node_af853d83850b2a0dc97625b0f72a3f8a9}{{7.8.2.1}{30}{anonymous enum}{subsubsection.7.8.2.1}{}}
\newlabel{class_node_af853d83850b2a0dc97625b0f72a3f8a9a0df509db5bcc8da1ec6af739b50791b5}{{7.8.2.1}{30}{\em \hypertarget {class_node_af853d83850b2a0dc97625b0f72a3f8a9a0df509db5bcc8da1ec6af739b50791b5}{}Type}{subsubsection.7.8.2.1}{}}
\@writefile{toc}{\contentsline {subsection}{\numberline {7.8.3}Constructor \& Destructor Documentation}{30}{subsection.7.8.3}}
\@writefile{toc}{\contentsline {subsubsection}{\numberline {7.8.3.1}Node}{30}{subsubsection.7.8.3.1}}
\newlabel{class_node_a5bf497c0b0a755db04b11a81defaaa03}{{7.8.3.1}{30}{Node}{subsubsection.7.8.3.1}{}}
\@writefile{toc}{\contentsline {subsection}{\numberline {7.8.4}Member Function Documentation}{30}{subsection.7.8.4}}
\@writefile{toc}{\contentsline {subsubsection}{\numberline {7.8.4.1}add\discretionary {\unhbox \voidb@x \hbox {\relax \fontsize  {7}{8}\selectfont  $\leftarrow \joinrel  \rhook $}}{}{}Edge}{30}{subsubsection.7.8.4.1}}
\newlabel{class_node_a86573dcde1125e02936ee7c256fb270a}{{7.8.4.1}{30}{add\+Edge}{subsubsection.7.8.4.1}{}}
\@writefile{toc}{\contentsline {subsubsection}{\numberline {7.8.4.2}bounding\discretionary {\unhbox \voidb@x \hbox {\relax \fontsize  {7}{8}\selectfont  $\leftarrow \joinrel  \rhook $}}{}{}Rect}{30}{subsubsection.7.8.4.2}}
\newlabel{class_node_a327ee966db1211cee4b9759bd928580a}{{7.8.4.2}{30}{bounding\+Rect}{subsubsection.7.8.4.2}{}}
\@writefile{toc}{\contentsline {subsubsection}{\numberline {7.8.4.3}color}{30}{subsubsection.7.8.4.3}}
\newlabel{class_node_aa35a7f79e9d9401b5bacd5b5c9575e37}{{7.8.4.3}{30}{color}{subsubsection.7.8.4.3}{}}
\gdef \PWST@xxxiv{1}
\@writefile{toc}{\contentsline {subsubsection}{\numberline {7.8.4.4}edges}{31}{subsubsection.7.8.4.4}}
\newlabel{class_node_ac68dc1f574ce2c2ac7c1a329b9efa92f}{{7.8.4.4}{31}{edges}{subsubsection.7.8.4.4}{}}
\@writefile{toc}{\contentsline {subsubsection}{\numberline {7.8.4.5}item\discretionary {\unhbox \voidb@x \hbox {\relax \fontsize  {7}{8}\selectfont  $\leftarrow \joinrel  \rhook $}}{}{}Change}{31}{subsubsection.7.8.4.5}}
\newlabel{class_node_a18959a6037e96225835e07a32b4024ed}{{7.8.4.5}{31}{item\+Change}{subsubsection.7.8.4.5}{}}
\@writefile{toc}{\contentsline {subsubsection}{\numberline {7.8.4.6}mouse\discretionary {\unhbox \voidb@x \hbox {\relax \fontsize  {7}{8}\selectfont  $\leftarrow \joinrel  \rhook $}}{}{}Press\discretionary {\unhbox \voidb@x \hbox {\relax \fontsize  {7}{8}\selectfont  $\leftarrow \joinrel  \rhook $}}{}{}Event}{31}{subsubsection.7.8.4.6}}
\newlabel{class_node_a2412d8007e9fd9cd1e3bf7afee57906e}{{7.8.4.6}{31}{mouse\+Press\+Event}{subsubsection.7.8.4.6}{}}
\@writefile{toc}{\contentsline {subsubsection}{\numberline {7.8.4.7}mouse\discretionary {\unhbox \voidb@x \hbox {\relax \fontsize  {7}{8}\selectfont  $\leftarrow \joinrel  \rhook $}}{}{}Release\discretionary {\unhbox \voidb@x \hbox {\relax \fontsize  {7}{8}\selectfont  $\leftarrow \joinrel  \rhook $}}{}{}Event}{31}{subsubsection.7.8.4.7}}
\newlabel{class_node_afc1bc6e8ea97c95e6ced177e828f70e9}{{7.8.4.7}{31}{mouse\+Release\+Event}{subsubsection.7.8.4.7}{}}
\@writefile{toc}{\contentsline {subsubsection}{\numberline {7.8.4.8}name}{31}{subsubsection.7.8.4.8}}
\newlabel{class_node_aa8db3331ff5a41ab95d8719254d2fc95}{{7.8.4.8}{31}{name}{subsubsection.7.8.4.8}{}}
\@writefile{toc}{\contentsline {subsubsection}{\numberline {7.8.4.9}paint}{31}{subsubsection.7.8.4.9}}
\newlabel{class_node_a35fd12d92a7ca5d7679c81ab6747a764}{{7.8.4.9}{31}{paint}{subsubsection.7.8.4.9}{}}
\gdef \PWST@xxxv{1}
\gdef \PWST@xxxvi{1}
\gdef \PWST@xxxvii{1}
\@writefile{toc}{\contentsline {subsubsection}{\numberline {7.8.4.10}set\discretionary {\unhbox \voidb@x \hbox {\relax \fontsize  {7}{8}\selectfont  $\leftarrow \joinrel  \rhook $}}{}{}Color}{32}{subsubsection.7.8.4.10}}
\newlabel{class_node_ab287b6217c1e274511d9f0f070b7de44}{{7.8.4.10}{32}{set\+Color}{subsubsection.7.8.4.10}{}}
\@writefile{toc}{\contentsline {subsubsection}{\numberline {7.8.4.11}shape}{32}{subsubsection.7.8.4.11}}
\newlabel{class_node_a0b1a8467340a3554ac57b43f56a90818}{{7.8.4.11}{32}{shape}{subsubsection.7.8.4.11}{}}
\@writefile{toc}{\contentsline {subsubsection}{\numberline {7.8.4.12}type}{32}{subsubsection.7.8.4.12}}
\newlabel{class_node_af48418d690ba7a21aea37168beaa865a}{{7.8.4.12}{32}{type}{subsubsection.7.8.4.12}{}}
\@writefile{toc}{\contentsline {subsection}{\numberline {7.8.5}Friends And Related Function Documentation}{32}{subsection.7.8.5}}
\@writefile{toc}{\contentsline {subsubsection}{\numberline {7.8.5.1}operator$<$$<$}{32}{subsubsection.7.8.5.1}}
\newlabel{class_node_ab46c7a974c0467dcf2cf2c8160e596e8}{{7.8.5.1}{32}{operator$<$$<$}{subsubsection.7.8.5.1}{}}
\@writefile{toc}{\contentsline {subsubsection}{\numberline {7.8.5.2}operator$>$$>$}{32}{subsubsection.7.8.5.2}}
\newlabel{class_node_a5a1cc59281bbddb90b0d98ba22745ecf}{{7.8.5.2}{32}{operator$>$$>$}{subsubsection.7.8.5.2}{}}
\gdef \PWST@xxxviii{1}
\@writefile{toc}{\contentsline {chapter}{\numberline {8}File Documentation}{35}{chapter.8}}
\@writefile{lof}{\addvspace {10\p@ }}
\@writefile{lot}{\addvspace {10\p@ }}
\@writefile{toc}{\contentsline {section}{\numberline {8.1}dijkstra.\discretionary {\unhbox \voidb@x \hbox {\relax \fontsize  {7}{8}\selectfont  $\leftarrow \joinrel  \rhook $}}{}{}cpp File Reference}{35}{section.8.1}}
\newlabel{dijkstra_8cpp}{{8.1}{35}{dijkstra.\+cpp File Reference}{section.8.1}{}}
\@writefile{toc}{\contentsline {section}{\numberline {8.2}dijkstra.\discretionary {\unhbox \voidb@x \hbox {\relax \fontsize  {7}{8}\selectfont  $\leftarrow \joinrel  \rhook $}}{}{}h File Reference}{35}{section.8.2}}
\newlabel{dijkstra_8h}{{8.2}{35}{dijkstra.\+h File Reference}{section.8.2}{}}
\@writefile{toc}{\contentsline {section}{\numberline {8.3}graph.\discretionary {\unhbox \voidb@x \hbox {\relax \fontsize  {7}{8}\selectfont  $\leftarrow \joinrel  \rhook $}}{}{}h File Reference}{35}{section.8.3}}
\newlabel{graph_8h}{{8.3}{35}{graph.\+h File Reference}{section.8.3}{}}
\gdef \PWST@xxxix{1}
\gdef \PWST@xl{1}
\@writefile{toc}{\contentsline {section}{\numberline {8.4}graphics.\discretionary {\unhbox \voidb@x \hbox {\relax \fontsize  {7}{8}\selectfont  $\leftarrow \joinrel  \rhook $}}{}{}cpp File Reference}{36}{section.8.4}}
\newlabel{graphics_8cpp}{{8.4}{36}{graphics.\+cpp File Reference}{section.8.4}{}}
\@writefile{toc}{\contentsline {subsection}{\numberline {8.4.1}Function Documentation}{36}{subsection.8.4.1}}
\@writefile{toc}{\contentsline {subsubsection}{\numberline {8.4.1.1}operator$<$$<$}{36}{subsubsection.8.4.1.1}}
\newlabel{graphics_8cpp_ab46c7a974c0467dcf2cf2c8160e596e8}{{8.4.1.1}{36}{operator$<$$<$}{subsubsection.8.4.1.1}{}}
\@writefile{toc}{\contentsline {subsubsection}{\numberline {8.4.1.2}operator$<$$<$}{36}{subsubsection.8.4.1.2}}
\newlabel{graphics_8cpp_a10f97fe8ce490bb2660fce6393d056ea}{{8.4.1.2}{36}{operator$<$$<$}{subsubsection.8.4.1.2}{}}
\@writefile{toc}{\contentsline {subsubsection}{\numberline {8.4.1.3}operator$>$$>$}{36}{subsubsection.8.4.1.3}}
\newlabel{graphics_8cpp_a5a1cc59281bbddb90b0d98ba22745ecf}{{8.4.1.3}{36}{operator$>$$>$}{subsubsection.8.4.1.3}{}}
\gdef \PWST@xli{1}
\@writefile{toc}{\contentsline {subsubsection}{\numberline {8.4.1.4}pi}{37}{subsubsection.8.4.1.4}}
\newlabel{graphics_8cpp_a19481c763d7a0b56b40eade0a21daab7}{{8.4.1.4}{37}{pi}{subsubsection.8.4.1.4}{}}
\@writefile{toc}{\contentsline {section}{\numberline {8.5}graphics.\discretionary {\unhbox \voidb@x \hbox {\relax \fontsize  {7}{8}\selectfont  $\leftarrow \joinrel  \rhook $}}{}{}h File Reference}{37}{section.8.5}}
\newlabel{graphics_8h}{{8.5}{37}{graphics.\+h File Reference}{section.8.5}{}}
\@writefile{toc}{\contentsline {section}{\numberline {8.6}main.\discretionary {\unhbox \voidb@x \hbox {\relax \fontsize  {7}{8}\selectfont  $\leftarrow \joinrel  \rhook $}}{}{}cpp File Reference}{37}{section.8.6}}
\newlabel{main_8cpp}{{8.6}{37}{main.\+cpp File Reference}{section.8.6}{}}
\@writefile{toc}{\contentsline {subsection}{\numberline {8.6.1}Function Documentation}{37}{subsection.8.6.1}}
\@writefile{toc}{\contentsline {subsubsection}{\numberline {8.6.1.1}main}{37}{subsubsection.8.6.1.1}}
\newlabel{main_8cpp_a0ddf1224851353fc92bfbff6f499fa97}{{8.6.1.1}{37}{main}{subsubsection.8.6.1.1}{}}
\@writefile{toc}{\contentsline {section}{\numberline {8.7}mapmainwindow.\discretionary {\unhbox \voidb@x \hbox {\relax \fontsize  {7}{8}\selectfont  $\leftarrow \joinrel  \rhook $}}{}{}cpp File Reference}{37}{section.8.7}}
\newlabel{mapmainwindow_8cpp}{{8.7}{37}{mapmainwindow.\+cpp File Reference}{section.8.7}{}}
\@writefile{toc}{\contentsline {section}{\numberline {8.8}mapmainwindow.\discretionary {\unhbox \voidb@x \hbox {\relax \fontsize  {7}{8}\selectfont  $\leftarrow \joinrel  \rhook $}}{}{}h File Reference}{38}{section.8.8}}
\newlabel{mapmainwindow_8h}{{8.8}{38}{mapmainwindow.\+h File Reference}{section.8.8}{}}
\@writefile{toc}{\contentsline {section}{\numberline {8.9}mapview.\discretionary {\unhbox \voidb@x \hbox {\relax \fontsize  {7}{8}\selectfont  $\leftarrow \joinrel  \rhook $}}{}{}cpp File Reference}{38}{section.8.9}}
\newlabel{mapview_8cpp}{{8.9}{38}{mapview.\+cpp File Reference}{section.8.9}{}}
\@writefile{toc}{\contentsline {section}{\numberline {8.10}mapview.\discretionary {\unhbox \voidb@x \hbox {\relax \fontsize  {7}{8}\selectfont  $\leftarrow \joinrel  \rhook $}}{}{}h File Reference}{38}{section.8.10}}
\newlabel{mapview_8h}{{8.10}{38}{mapview.\+h File Reference}{section.8.10}{}}
\@writefile{toc}{\contentsline {section}{\numberline {8.11}R\discretionary {\unhbox \voidb@x \hbox {\relax \fontsize  {7}{8}\selectfont  $\leftarrow \joinrel  \rhook $}}{}{}E\discretionary {\unhbox \voidb@x \hbox {\relax \fontsize  {7}{8}\selectfont  $\leftarrow \joinrel  \rhook $}}{}{}A\discretionary {\unhbox \voidb@x \hbox {\relax \fontsize  {7}{8}\selectfont  $\leftarrow \joinrel  \rhook $}}{}{}D\discretionary {\unhbox \voidb@x \hbox {\relax \fontsize  {7}{8}\selectfont  $\leftarrow \joinrel  \rhook $}}{}{}M\discretionary {\unhbox \voidb@x \hbox {\relax \fontsize  {7}{8}\selectfont  $\leftarrow \joinrel  \rhook $}}{}{}E.\discretionary {\unhbox \voidb@x \hbox {\relax \fontsize  {7}{8}\selectfont  $\leftarrow \joinrel  \rhook $}}{}{}md File Reference}{38}{section.8.11}}
\newlabel{_r_e_a_d_m_e_8md}{{8.11}{38}{R\+E\+A\+D\+M\+E.\+md File Reference}{section.8.11}{}}
\@writefile{toc}{\contentsline {section}{\numberline {8.12}stdafx.\discretionary {\unhbox \voidb@x \hbox {\relax \fontsize  {7}{8}\selectfont  $\leftarrow \joinrel  \rhook $}}{}{}cpp File Reference}{38}{section.8.12}}
\newlabel{stdafx_8cpp}{{8.12}{38}{stdafx.\+cpp File Reference}{section.8.12}{}}
\@writefile{toc}{\contentsline {section}{\numberline {8.13}stdafx.\discretionary {\unhbox \voidb@x \hbox {\relax \fontsize  {7}{8}\selectfont  $\leftarrow \joinrel  \rhook $}}{}{}h File Reference}{38}{section.8.13}}
\newlabel{stdafx_8h}{{8.13}{38}{stdafx.\+h File Reference}{section.8.13}{}}
\@writefile{toc}{\contentsline {chapter}{Index}{39}{section*.34}}
